hv024,shdist,District
andhra pradesh,1,SRIKAKULAM
andhra pradesh,1,SRIKAKULAM
andhra pradesh,2,VIZIANAGARAM
andhra pradesh,2,VIZIANAGARAM
andhra pradesh,2,VIZIANAGARAM
andhra pradesh,2,VIZIANAGARAM
andhra pradesh,2,VIZIANAGARAM
andhra pradesh,3,VISAKHAPATNAM
andhra pradesh,3,VISAKHAPATNAM
andhra pradesh,3,VISAKHAPATNAM
andhra pradesh,3,VISAKHAPATNAM
andhra pradesh,3,VISAKHAPATNAM
andhra pradesh,4,EAST GODAVARI
andhra pradesh,4,EAST GODAVARI
andhra pradesh,4,EAST GODAVARI
andhra pradesh,4,EAST GODAVARI
andhra pradesh,4,EAST GODAVARI
andhra pradesh,5,WEST GODAVARI
andhra pradesh,5,WEST GODAVARI
andhra pradesh,5,WEST GODAVARI
andhra pradesh,5,WEST GODAVARI
andhra pradesh,6,KRISHNA
andhra pradesh,6,KRISHNA
andhra pradesh,6,KRISHNA
andhra pradesh,6,KRISHNA
andhra pradesh,6,KRISHNA
andhra pradesh,6,KRISHNA
andhra pradesh,7,GUNTUR
andhra pradesh,7,GUNTUR
andhra pradesh,7,GUNTUR
andhra pradesh,7,GUNTUR
andhra pradesh,7,GUNTUR
andhra pradesh,7,GUNTUR
andhra pradesh,7,GUNTUR
andhra pradesh,7,GUNTUR
andhra pradesh,7,GUNTUR
andhra pradesh,8,PRAKASAM
andhra pradesh,8,PRAKASAM
andhra pradesh,8,PRAKASAM
andhra pradesh,8,PRAKASAM
andhra pradesh,8,PRAKASAM
andhra pradesh,9,NELLORE
andhra pradesh,9,NELLORE
andhra pradesh,9,NELLORE
andhra pradesh,10,CHITTOOR
andhra pradesh,10,CHITTOOR
andhra pradesh,10,CHITTOOR
andhra pradesh,10,CHITTOOR
andhra pradesh,10,CHITTOOR
andhra pradesh,10,CHITTOOR
andhra pradesh,10,CHITTOOR
andhra pradesh,10,CHITTOOR
andhra pradesh,11,CUDDAPAH
andhra pradesh,11,CUDDAPAH
andhra pradesh,12,ANANTAPUR
andhra pradesh,12,ANANTAPUR
andhra pradesh,12,ANANTAPUR
andhra pradesh,12,ANANTAPUR
andhra pradesh,13,KURNOOL
andhra pradesh,13,KURNOOL
andhra pradesh,13,KURNOOL
andhra pradesh,13,KURNOOL
andhra pradesh,13,KURNOOL
andhra pradesh,14,MAHBUBNAGAR
andhra pradesh,14,MAHBUBNAGAR
andhra pradesh,14,MAHBUBNAGAR
andhra pradesh,14,MAHBUBNAGAR
andhra pradesh,14,MAHBUBNAGAR
andhra pradesh,14,MAHBUBNAGAR
andhra pradesh,17,MEDAK
andhra pradesh,17,MEDAK
andhra pradesh,17,MEDAK
andhra pradesh,18,NIZAMABAD
andhra pradesh,18,NIZAMABAD
andhra pradesh,18,NIZAMABAD
andhra pradesh,19,ADILABAD
andhra pradesh,19,ADILABAD
andhra pradesh,19,ADILABAD
andhra pradesh,19,ADILABAD
andhra pradesh,19,ADILABAD
andhra pradesh,19,ADILABAD
andhra pradesh,19,ADILABAD
andhra pradesh,23,NALGONDA
andhra pradesh,23,NALGONDA
andhra pradesh,23,NALGONDA
andhra pradesh,23,NALGONDA
andhra pradesh,23,NALGONDA
andhra pradesh,20,KARIMNAGAR
andhra pradesh,20,KARIMNAGAR
andhra pradesh,20,KARIMNAGAR
andhra pradesh,20,KARIMNAGAR
andhra pradesh,21,WARANGAL
andhra pradesh,21,WARANGAL
andhra pradesh,21,WARANGAL
andhra pradesh,21,WARANGAL
andhra pradesh,21,WARANGAL
andhra pradesh,21,WARANGAL
andhra pradesh,21,WARANGAL
andhra pradesh,22,KHAMMAM
andhra pradesh,22,KHAMMAM
andhra pradesh,16,HYDERABAD
andhra pradesh,16,HYDERABAD
andhra pradesh,16,HYDERABAD
andhra pradesh,16,HYDERABAD
andhra pradesh,16,HYDERABAD
andhra pradesh,16,HYDERABAD
andhra pradesh,16,HYDERABAD
andhra pradesh,16,HYDERABAD
andhra pradesh,16,HYDERABAD
andhra pradesh,16,HYDERABAD
andhra pradesh,16,HYDERABAD
andhra pradesh,16,HYDERABAD
andhra pradesh,16,HYDERABAD
andhra pradesh,16,HYDERABAD
andhra pradesh,3,VISAKHAPATNAM
andhra pradesh,3,VISAKHAPATNAM
andhra pradesh,3,VISAKHAPATNAM
andhra pradesh,3,VISAKHAPATNAM
andhra pradesh,6,KRISHNA
andhra pradesh,6,KRISHNA
andhra pradesh,2,VIZIANAGARAM
andhra pradesh,2,VIZIANAGARAM
andhra pradesh,4,EAST GODAVARI
andhra pradesh,4,EAST GODAVARI
andhra pradesh,7,GUNTUR
andhra pradesh,7,GUNTUR
andhra pradesh,9,NELLORE
andhra pradesh,9,NELLORE
andhra pradesh,13,KURNOOL
andhra pradesh,13,KURNOOL
andhra pradesh,18,NIZAMABAD
andhra pradesh,18,NIZAMABAD
andhra pradesh,21,WARANGAL
andhra pradesh,21,WARANGAL
andhra pradesh,2,VIZIANAGARAM
andhra pradesh,2,VIZIANAGARAM
andhra pradesh,4,EAST GODAVARI
andhra pradesh,4,EAST GODAVARI
andhra pradesh,5,WEST GODAVARI
andhra pradesh,5,WEST GODAVARI
andhra pradesh,6,KRISHNA
andhra pradesh,6,KRISHNA
andhra pradesh,7,GUNTUR
andhra pradesh,7,GUNTUR
andhra pradesh,9,NELLORE
andhra pradesh,9,NELLORE
andhra pradesh,11,CUDDAPAH
andhra pradesh,11,CUDDAPAH
andhra pradesh,12,ANANTAPUR
andhra pradesh,12,ANANTAPUR
andhra pradesh,13,KURNOOL
andhra pradesh,13,KURNOOL
andhra pradesh,23,NALGONDA
andhra pradesh,23,NALGONDA
andhra pradesh,19,ADILABAD
andhra pradesh,19,ADILABAD
andhra pradesh,21,WARANGAL
andhra pradesh,21,WARANGAL
assam,1,Dhubri
assam,1,Dhubri
assam,1,Dhubri
assam,1,Dhubri
assam,1,Dhubri
assam,3,Bongaigaon
assam,3,Bongaigaon
assam,3,Bongaigaon
assam,4,Goalpara
assam,4,Goalpara
assam,4,Goalpara
assam,4,Goalpara
assam,4,Goalpara
assam,4,Goalpara
assam,4,Goalpara
assam,4,Goalpara
assam,5,Barpeta
assam,5,Barpeta
assam,5,Barpeta
assam,5,Barpeta
assam,5,Barpeta
assam,6,Nalbari
assam,6,Nalbari
assam,7,Kamrup
assam,7,Kamrup
assam,7,Kamrup
assam,9,Sonitpur
assam,9,Sonitpur
assam,9,Sonitpur
assam,9,Sonitpur
assam,9,Sonitpur
assam,9,Sonitpur
assam,9,Sonitpur
assam,10,Lakhimpur
assam,10,Lakhimpur
assam,10,Lakhimpur
assam,11,Dhemaji
assam,12,Marigaon
assam,12,Marigaon
assam,13,Nagaon
assam,13,Nagaon
assam,13,Nagaon
assam,14,Golaghat
assam,14,Golaghat
assam,14,Golaghat
assam,14,Golaghat
assam,14,Golaghat
assam,14,Golaghat
assam,14,Golaghat
assam,15,Jorhat
assam,15,Jorhat
assam,16,Sibsagar
assam,18,Tinsukia
assam,18,Tinsukia
assam,18,Tinsukia
assam,18,Tinsukia
assam,19,Karbi Anglong
assam,19,Karbi Anglong
assam,21,Karimganj
assam,22,Hailakandi
assam,23,Cachar
assam,23,Cachar
assam,23,Cachar
assam,23,Cachar
assam,23,Cachar
assam,23,Cachar
assam,23,Cachar
assam,23,Cachar
assam,7,Kamrup
assam,7,Kamrup
assam,7,Kamrup
assam,7,Kamrup
assam,7,Kamrup
assam,7,Kamrup
assam,7,Kamrup
assam,7,Kamrup
assam,7,Kamrup
assam,7,Kamrup
assam,7,Kamrup
assam,7,Kamrup
assam,7,Kamrup
assam,15,Jorhat
assam,15,Jorhat
assam,17,Dibrugarh
assam,17,Dibrugarh
assam,17,Dibrugarh
assam,23,Cachar
assam,23,Cachar
assam,12,Marigaon
assam,12,Marigaon
assam,13,Nagaon
assam,13,Nagaon
assam,3,Bongaigaon
assam,3,Bongaigaon
assam,9,Sonitpur
assam,9,Sonitpur
assam,16,Sibsagar
assam,16,Sibsagar
assam,18,Tinsukia
assam,18,Tinsukia
assam,10,Lakhimpur
assam,10,Lakhimpur
assam,7,Kamrup
assam,7,Kamrup
assam,13,Nagaon
assam,13,Nagaon
assam,1,Dhubri
assam,1,Dhubri
assam,3,Bongaigaon
assam,3,Bongaigaon
assam,5,Barpeta
assam,5,Barpeta
assam,15,Jorhat
assam,15,Jorhat
assam,18,Tinsukia
assam,18,Tinsukia
assam,10,Lakhimpur
assam,10,Lakhimpur
bihar,17,Begusarai
bihar,17,Begusarai
bihar,17,Begusarai
bihar,17,Begusarai
bihar,17,Begusarai
bihar,17,Begusarai
bihar,17,Begusarai
bihar,17,Begusarai
bihar,17,Begusarai
bihar,20,Madhubani
bihar,20,Madhubani
bihar,20,Madhubani
bihar,20,Madhubani
bihar,20,Madhubani
bihar,20,Madhubani
bihar,20,Madhubani
bihar,20,Madhubani
bihar,20,Madhubani
bihar,20,Madhubani
bihar,20,Madhubani
bihar,20,Madhubani
bihar,22,Madhepura
bihar,22,Madhepura
bihar,22,Madhepura
bihar,22,Madhepura
bihar,22,Madhepura
bihar,3,Bhojpur
bihar,3,Bhojpur
bihar,3,Bhojpur
bihar,3,Bhojpur
bihar,3,Bhojpur
bihar,3,Bhojpur
bihar,3,Bhojpur
bihar,4,Rohtas
bihar,4,Rohtas
bihar,4,Rohtas
bihar,4,Rohtas
bihar,4,Rohtas
bihar,4,Rohtas
bihar,4,Rohtas
bihar,4,Rohtas
bihar,4,Rohtas
bihar,4,Rohtas
bihar,4,Rohtas
bihar,4,Rohtas
bihar,4,Rohtas
bihar,4,Rohtas
bihar,4,Rohtas
bihar,4,Rohtas
bihar,4,Rohtas
bihar,4,Rohtas
bihar,4,Rohtas
bihar,4,Rohtas
bihar,4,Rohtas
bihar,1,Patna
bihar,1,Patna
bihar,1,Patna
bihar,1,Patna
bihar,2,Nalanda
bihar,2,Nalanda
bihar,2,Nalanda
bihar,2,Nalanda
bihar,6,Jehanabad
bihar,6,Jehanabad
bihar,6,Jehanabad
bihar,7,Gaya
bihar,7,Gaya
bihar,8,Nawada
bihar,8,Nawada
bihar,8,Nawada
bihar,8,Nawada
bihar,9,Saran
bihar,9,Saran
bihar,9,Saran
bihar,10,Siwan
bihar,11,Gopalganj
bihar,11,Gopalganj
bihar,11,Gopalganj
bihar,11,Gopalganj
bihar,11,Gopalganj
bihar,11,Gopalganj
bihar,13,Purba Champaran
bihar,13,Purba Champaran
bihar,14,Sitamarhi
bihar,14,Sitamarhi
bihar,14,Sitamarhi
bihar,14,Sitamarhi
bihar,14,Sitamarhi
bihar,15,Muzaffarpur
bihar,15,Muzaffarpur
bihar,16,Vaishali
bihar,16,Vaishali
bihar,18,Samastipur
bihar,19,Darbhanga
bihar,19,Darbhanga
bihar,19,Darbhanga
bihar,19,Darbhanga
bihar,21,Saharsa
bihar,21,Saharsa
bihar,21,Saharsa
bihar,21,Saharsa
bihar,21,Saharsa
bihar,23,Purnia
bihar,24,Katihar
bihar,24,Katihar
bihar,24,Katihar
bihar,24,Katihar
bihar,24,Katihar
bihar,24,Katihar
bihar,24,Katihar
bihar,25,Khagaria
bihar,25,Khagaria
bihar,25,Khagaria
bihar,25,Khagaria
bihar,25,Khagaria
bihar,25,Khagaria
bihar,27,Bhagalpur
bihar,27,Bhagalpur
bihar,28,Godda
bihar,28,Godda
bihar,28,Godda
bihar,28,Godda
bihar,28,Godda
bihar,29,Sahibganj
bihar,29,Sahibganj
bihar,29,Sahibganj
bihar,29,Sahibganj
bihar,30,Dumka
bihar,30,Dumka
bihar,30,Dumka
bihar,31,Deoghar
bihar,31,Deoghar
bihar,31,Deoghar
bihar,31,Deoghar
bihar,20,Madhubani
bihar,20,Madhubani
bihar,17,Begusarai
bihar,17,Begusarai
bihar,4,Rohtas
bihar,4,Rohtas
bihar,4,Rohtas
bihar,4,Rohtas
bihar,4,Rohtas
bihar,1,Patna
bihar,1,Patna
bihar,1,Patna
bihar,1,Patna
bihar,1,Patna
bihar,26,Munger
bihar,26,Munger
bihar,26,Munger
bihar,30,Dumka
bihar,30,Dumka
bihar,30,Dumka
bihar,31,Deoghar
bihar,31,Deoghar
bihar,31,Deoghar
bihar,7,Gaya
bihar,7,Gaya
bihar,12,Pashchim Champaran
bihar,12,Pashchim Champaran
bihar,14,Sitamarhi
bihar,14,Sitamarhi
bihar,18,Samastipur
bihar,18,Samastipur
bihar,24,Katihar
bihar,24,Katihar
bihar,27,Bhagalpur
bihar,27,Bhagalpur
bihar,6,Jehanabad
bihar,6,Jehanabad
bihar,8,Nawada
bihar,8,Nawada
bihar,16,Vaishali
bihar,16,Vaishali
bihar,23,Purnia
bihar,23,Purnia
bihar,26,Munger
bihar,26,Munger
bihar,27,Bhagalpur
bihar,27,Bhagalpur
bihar,29,Sahibganj
bihar,29,Sahibganj
bihar,31,Deoghar
bihar,31,Deoghar
goa,1,Goa
goa,1,Goa
goa,1,Goa
goa,1,Goa
goa,1,Goa
goa,1,Goa
goa,1,Goa
goa,1,Goa
goa,1,Goa
goa,1,Goa
goa,1,Goa
goa,1,Goa
goa,1,Goa
goa,1,Goa
goa,1,Goa
goa,1,Goa
goa,1,Goa
goa,1,Goa
goa,1,Goa
goa,1,Goa
goa,1,Goa
goa,1,Goa
goa,1,Goa
goa,1,Goa
goa,1,Goa
goa,1,Goa
goa,1,Goa
goa,1,Goa
goa,1,Goa
goa,1,Goa
goa,1,Goa
goa,1,Goa
goa,1,Goa
goa,1,Goa
goa,1,Goa
goa,1,Goa
goa,1,Goa
goa,1,Goa
goa,1,Goa
goa,1,Goa
goa,1,Goa
goa,1,Goa
goa,1,Goa
goa,1,Goa
goa,1,Goa
goa,1,Goa
goa,1,Goa
goa,1,Goa
goa,1,Goa
goa,1,Goa
goa,1,Goa
goa,1,Goa
goa,1,Goa
goa,1,Goa
goa,1,Goa
goa,1,Goa
goa,1,Goa
goa,1,Goa
goa,1,Goa
goa,1,Goa
goa,1,Goa
goa,1,Goa
goa,1,Goa
goa,1,Goa
goa,1,Goa
goa,1,Goa
goa,1,Goa
goa,1,Goa
goa,1,Goa
goa,1,Goa
goa,1,Goa
goa,1,Goa
goa,1,Goa
goa,1,Goa
goa,1,Goa
goa,1,Goa
goa,1,Goa
goa,1,Goa
goa,1,Goa
goa,1,Goa
goa,1,Goa
goa,1,Goa
goa,1,Goa
goa,1,Goa
goa,1,Goa
goa,1,Goa
goa,1,Goa
goa,1,Goa
goa,1,Goa
goa,1,Goa
goa,1,Goa
goa,1,Goa
goa,1,Goa
goa,1,Goa
goa,1,Goa
goa,1,Goa
goa,1,Goa
goa,1,Goa
goa,1,Goa
goa,1,Goa
goa,1,Goa
goa,1,Goa
goa,1,Goa
goa,1,Goa
goa,1,Goa
goa,1,Goa
goa,1,Goa
goa,1,Goa
goa,1,Goa
goa,1,Goa
goa,1,Goa
goa,1,Goa
goa,1,Goa
goa,1,Goa
goa,1,Goa
goa,1,Goa
goa,1,Goa
goa,1,Goa
goa,1,Goa
goa,1,Goa
goa,1,Goa
goa,1,Goa
goa,1,Goa
goa,1,Goa
goa,1,Goa
goa,1,Goa
goa,1,Goa
goa,1,Goa
goa,1,Goa
goa,1,Goa
goa,1,Goa
goa,1,Goa
goa,1,Goa
goa,1,Goa
goa,1,Goa
goa,1,Goa
goa,1,Goa
goa,1,Goa
goa,1,Goa
goa,1,Goa
goa,1,Goa
goa,1,Goa
gujarat,1,JAMNAGAR
gujarat,1,JAMNAGAR
gujarat,1,JAMNAGAR
gujarat,1,JAMNAGAR
gujarat,1,JAMNAGAR
gujarat,1,JAMNAGAR
gujarat,2,RAJKOT
gujarat,3,SURENDRANAGAR
gujarat,3,SURENDRANAGAR
gujarat,4,BHAVNAGAR
gujarat,4,BHAVNAGAR
gujarat,4,BHAVNAGAR
gujarat,4,BHAVNAGAR
gujarat,5,AMRELI
gujarat,5,AMRELI
gujarat,5,AMRELI
gujarat,6,JUNAGADH
gujarat,6,JUNAGADH
gujarat,6,JUNAGADH
gujarat,6,JUNAGADH
gujarat,6,JUNAGADH
gujarat,7,KACHCHH
gujarat,8,BANASKANTHA
gujarat,8,BANASKANTHA
gujarat,8,BANASKANTHA
gujarat,8,BANASKANTHA
gujarat,8,BANASKANTHA
gujarat,8,BANASKANTHA
gujarat,8,BANASKANTHA
gujarat,9,SABARKANTHA
gujarat,9,SABARKANTHA
gujarat,9,SABARKANTHA
gujarat,9,SABARKANTHA
gujarat,10,MAHESANA
gujarat,10,MAHESANA
gujarat,10,MAHESANA
gujarat,10,MAHESANA
gujarat,10,MAHESANA
gujarat,10,MAHESANA
gujarat,11,GANDHINAGAR
gujarat,12,AHMADABAD
gujarat,12,AHMADABAD
gujarat,12,AHMADABAD
gujarat,13,KHEDA
gujarat,13,KHEDA
gujarat,13,KHEDA
gujarat,13,KHEDA
gujarat,13,KHEDA
gujarat,13,KHEDA
gujarat,13,KHEDA
gujarat,14,PANCHMAHALS
gujarat,14,PANCHMAHALS
gujarat,14,PANCHMAHALS
gujarat,14,PANCHMAHALS
gujarat,14,PANCHMAHALS
gujarat,14,PANCHMAHALS
gujarat,14,PANCHMAHALS
gujarat,14,PANCHMAHALS
gujarat,14,PANCHMAHALS
gujarat,15,VADODARA
gujarat,15,VADODARA
gujarat,15,VADODARA
gujarat,16,BHARUCH
gujarat,16,BHARUCH
gujarat,16,BHARUCH
gujarat,16,BHARUCH
gujarat,16,BHARUCH
gujarat,17,SURAT
gujarat,17,SURAT
gujarat,17,SURAT
gujarat,18,VALSAD
gujarat,18,VALSAD
gujarat,18,VALSAD
gujarat,18,VALSAD
gujarat,18,VALSAD
gujarat,2,RAJKOT
gujarat,2,RAJKOT
gujarat,2,RAJKOT
gujarat,12,AHMADABAD
gujarat,12,AHMADABAD
gujarat,12,AHMADABAD
gujarat,12,AHMADABAD
gujarat,12,AHMADABAD
gujarat,12,AHMADABAD
gujarat,12,AHMADABAD
gujarat,12,AHMADABAD
gujarat,12,AHMADABAD
gujarat,12,AHMADABAD
gujarat,12,AHMADABAD
gujarat,12,AHMADABAD
gujarat,12,AHMADABAD
gujarat,12,AHMADABAD
gujarat,12,AHMADABAD
gujarat,12,AHMADABAD
gujarat,15,VADODARA
gujarat,15,VADODARA
gujarat,15,VADODARA
gujarat,15,VADODARA
gujarat,15,VADODARA
gujarat,15,VADODARA
gujarat,17,SURAT
gujarat,17,SURAT
gujarat,17,SURAT
gujarat,17,SURAT
gujarat,17,SURAT
gujarat,17,SURAT
gujarat,17,SURAT
gujarat,1,JAMNAGAR
gujarat,1,JAMNAGAR
gujarat,4,BHAVNAGAR
gujarat,4,BHAVNAGAR
gujarat,8,BANASKANTHA
gujarat,8,BANASKANTHA
gujarat,18,VALSAD
gujarat,18,VALSAD
gujarat,1,JAMNAGAR
gujarat,1,JAMNAGAR
gujarat,2,RAJKOT
gujarat,2,RAJKOT
gujarat,3,SURENDRANAGAR
gujarat,3,SURENDRANAGAR
gujarat,4,BHAVNAGAR
gujarat,4,BHAVNAGAR
gujarat,6,JUNAGADH
gujarat,6,JUNAGADH
gujarat,6,JUNAGADH
gujarat,6,JUNAGADH
gujarat,7,KACHCHH
gujarat,7,KACHCHH
gujarat,10,MAHESANA
gujarat,10,MAHESANA
gujarat,10,MAHESANA
gujarat,10,MAHESANA
gujarat,12,AHMADABAD
gujarat,12,AHMADABAD
gujarat,13,KHEDA
gujarat,13,KHEDA
gujarat,14,PANCHMAHALS
gujarat,14,PANCHMAHALS
gujarat,15,VADODARA
gujarat,15,VADODARA
gujarat,17,SURAT
gujarat,17,SURAT
haryana,5,KARNAL
haryana,5,KARNAL
haryana,5,KARNAL
haryana,7,SONIPAT
haryana,7,SONIPAT
haryana,8,ROHTAK
haryana,8,ROHTAK
haryana,8,ROHTAK
haryana,8,ROHTAK
haryana,8,ROHTAK
haryana,8,ROHTAK
haryana,8,ROHTAK
haryana,8,ROHTAK
haryana,8,ROHTAK
haryana,1,AMBALA
haryana,1,AMBALA
haryana,1,AMBALA
haryana,1,AMBALA
haryana,1,AMBALA
haryana,1,AMBALA
haryana,1,AMBALA
haryana,1,AMBALA
haryana,1,AMBALA
haryana,2,YAMUNANAGAR
haryana,2,YAMUNANAGAR
haryana,2,YAMUNANAGAR
haryana,2,YAMUNANAGAR
haryana,2,YAMUNANAGAR
haryana,3,KURUKSHETRA
haryana,3,KURUKSHETRA
haryana,3,KURUKSHETRA
haryana,3,KURUKSHETRA
haryana,3,KURUKSHETRA
haryana,9,FARIDABAD
haryana,9,FARIDABAD
haryana,9,FARIDABAD
haryana,9,FARIDABAD
haryana,10,GURGAON
haryana,10,GURGAON
haryana,10,GURGAON
haryana,10,GURGAON
haryana,12,MAHENDRAGARH
haryana,12,MAHENDRAGARH
haryana,12,MAHENDRAGARH
haryana,12,MAHENDRAGARH
haryana,12,MAHENDRAGARH
haryana,12,MAHENDRAGARH
haryana,4,KAITHAL
haryana,4,KAITHAL
haryana,4,KAITHAL
haryana,4,KAITHAL
haryana,4,KAITHAL
haryana,6,PANIPAT
haryana,6,PANIPAT
haryana,6,PANIPAT
haryana,6,PANIPAT
haryana,6,PANIPAT
haryana,6,PANIPAT
haryana,6,PANIPAT
haryana,6,PANIPAT
haryana,6,PANIPAT
haryana,6,PANIPAT
haryana,11,REWARI
haryana,11,REWARI
haryana,11,REWARI
haryana,11,REWARI
haryana,11,REWARI
haryana,11,REWARI
haryana,7,SONIPAT
haryana,7,SONIPAT
haryana,7,SONIPAT
haryana,7,SONIPAT
haryana,7,SONIPAT
haryana,7,SONIPAT
haryana,7,SONIPAT
haryana,7,SONIPAT
haryana,1,AMBALA
haryana,1,AMBALA
haryana,1,AMBALA
haryana,3,KURUKSHETRA
haryana,3,KURUKSHETRA
haryana,3,KURUKSHETRA
haryana,3,KURUKSHETRA
haryana,6,PANIPAT
haryana,6,PANIPAT
haryana,6,PANIPAT
haryana,11,REWARI
haryana,11,REWARI
haryana,5,KARNAL
haryana,5,KARNAL
haryana,8,ROHTAK
haryana,8,ROHTAK
haryana,2,YAMUNANAGAR
haryana,2,YAMUNANAGAR
haryana,9,FARIDABAD
haryana,9,FARIDABAD
haryana,10,GURGAON
haryana,10,GURGAON
haryana,12,MAHENDRAGARH
haryana,12,MAHENDRAGARH
haryana,7,SONIPAT
haryana,7,SONIPAT
haryana,8,ROHTAK
haryana,8,ROHTAK
haryana,1,AMBALA
haryana,1,AMBALA
haryana,1,AMBALA
haryana,1,AMBALA
haryana,2,YAMUNANAGAR
haryana,2,YAMUNANAGAR
haryana,9,FARIDABAD
haryana,9,FARIDABAD
haryana,6,PANIPAT
haryana,6,PANIPAT
haryana,4,KAITHAL
haryana,4,KAITHAL
haryana,11,REWARI
haryana,11,REWARI
himachal pradesh,1,Chamba
himachal pradesh,8,Lahul & Spiti
himachal pradesh,2,Kangra
himachal pradesh,2,Kangra
himachal pradesh,2,Kangra
himachal pradesh,2,Kangra
himachal pradesh,3,Hamirpur
himachal pradesh,3,Hamirpur
himachal pradesh,4,Una
himachal pradesh,6,Mandi
himachal pradesh,6,Mandi
himachal pradesh,6,Mandi
himachal pradesh,10,Solan
himachal pradesh,10,Solan
himachal pradesh,10,Solan
himachal pradesh,11,Sirmaur
himachal pradesh,5,Bilaspur
himachal pradesh,9,Shimla
himachal pradesh,9,Shimla
himachal pradesh,9,Shimla
himachal pradesh,1,Chamba
himachal pradesh,1,Chamba
himachal pradesh,1,Chamba
himachal pradesh,1,Chamba
himachal pradesh,1,Chamba
himachal pradesh,1,Chamba
himachal pradesh,2,Kangra
himachal pradesh,3,Hamirpur
himachal pradesh,2,Kangra
himachal pradesh,2,Kangra
himachal pradesh,2,Kangra
himachal pradesh,2,Kangra
himachal pradesh,2,Kangra
himachal pradesh,2,Kangra
himachal pradesh,2,Kangra
himachal pradesh,2,Kangra
himachal pradesh,2,Kangra
himachal pradesh,2,Kangra
himachal pradesh,2,Kangra
himachal pradesh,2,Kangra
himachal pradesh,3,Hamirpur
himachal pradesh,3,Hamirpur
himachal pradesh,3,Hamirpur
himachal pradesh,4,Una
himachal pradesh,4,Una
himachal pradesh,4,Una
himachal pradesh,4,Una
himachal pradesh,4,Una
himachal pradesh,4,Una
himachal pradesh,4,Una
himachal pradesh,6,Mandi
himachal pradesh,6,Mandi
himachal pradesh,6,Mandi
himachal pradesh,6,Mandi
himachal pradesh,6,Mandi
himachal pradesh,6,Mandi
himachal pradesh,6,Mandi
himachal pradesh,6,Mandi
himachal pradesh,6,Mandi
himachal pradesh,7,Kullu
himachal pradesh,7,Kullu
himachal pradesh,7,Kullu
himachal pradesh,7,Kullu
himachal pradesh,7,Kullu
himachal pradesh,10,Solan
himachal pradesh,10,Solan
himachal pradesh,11,Sirmaur
himachal pradesh,11,Sirmaur
himachal pradesh,11,Sirmaur
himachal pradesh,11,Sirmaur
himachal pradesh,5,Bilaspur
himachal pradesh,5,Bilaspur
himachal pradesh,5,Bilaspur
himachal pradesh,5,Bilaspur
himachal pradesh,9,Shimla
himachal pradesh,9,Shimla
himachal pradesh,9,Shimla
himachal pradesh,9,Shimla
himachal pradesh,9,Shimla
himachal pradesh,9,Shimla
himachal pradesh,9,Shimla
himachal pradesh,9,Shimla
himachal pradesh,9,Shimla
himachal pradesh,9,Shimla
himachal pradesh,9,Shimla
himachal pradesh,9,Shimla
himachal pradesh,9,Shimla
himachal pradesh,9,Shimla
himachal pradesh,9,Shimla
himachal pradesh,9,Shimla
himachal pradesh,9,Shimla
himachal pradesh,9,Shimla
himachal pradesh,6,Mandi
himachal pradesh,6,Mandi
himachal pradesh,11,Sirmaur
himachal pradesh,11,Sirmaur
himachal pradesh,10,Solan
himachal pradesh,10,Solan
himachal pradesh,1,Chamba
himachal pradesh,1,Chamba
himachal pradesh,3,Hamirpur
himachal pradesh,3,Hamirpur
himachal pradesh,7,Kullu
himachal pradesh,7,Kullu
himachal pradesh,5,Bilaspur
himachal pradesh,5,Bilaspur
himachal pradesh,1,Chamba
himachal pradesh,1,Chamba
himachal pradesh,2,Kangra
himachal pradesh,2,Kangra
himachal pradesh,2,Kangra
himachal pradesh,2,Kangra
himachal pradesh,3,Hamirpur
himachal pradesh,3,Hamirpur
himachal pradesh,4,Una
himachal pradesh,4,Una
himachal pradesh,6,Mandi
himachal pradesh,6,Mandi
himachal pradesh,6,Mandi
himachal pradesh,6,Mandi
himachal pradesh,5,Bilaspur
himachal pradesh,5,Bilaspur
himachal pradesh,11,Sirmaur
himachal pradesh,11,Sirmaur
himachal pradesh,10,Solan
himachal pradesh,10,Solan
jammu,12,Jammmu
jammu,12,Jammmu
jammu,12,Jammmu
jammu,12,Jammmu
jammu,12,Jammmu
jammu,12,Jammmu
jammu,12,Jammmu
jammu,12,Jammmu
jammu,11,Kathua
jammu,11,Kathua
jammu,11,Kathua
jammu,11,Kathua
jammu,10,Udhampur
jammu,10,Udhampur
jammu,10,Udhampur
jammu,10,Udhampur
jammu,10,Udhampur
jammu,10,Udhampur
jammu,10,Udhampur
jammu,10,Udhampur
jammu,10,Udhampur
jammu,10,Udhampur
jammu,11,Kathua
jammu,11,Kathua
jammu,11,Kathua
jammu,11,Kathua
jammu,11,Kathua
jammu,11,Kathua
jammu,11,Kathua
jammu,11,Kathua
jammu,11,Kathua
jammu,11,Kathua
jammu,12,Jammmu
jammu,12,Jammmu
jammu,12,Jammmu
jammu,12,Jammmu
jammu,12,Jammmu
jammu,12,Jammmu
jammu,12,Jammmu
jammu,12,Jammmu
jammu,12,Jammmu
jammu,12,Jammmu
jammu,12,Jammmu
jammu,12,Jammmu
jammu,12,Jammmu
jammu,12,Jammmu
jammu,12,Jammmu
jammu,12,Jammmu
jammu,12,Jammmu
jammu,12,Jammmu
jammu,12,Jammmu
jammu,12,Jammmu
jammu,13,Rajauri
jammu,13,Rajauri
jammu,13,Rajauri
jammu,13,Rajauri
jammu,13,Rajauri
jammu,13,Rajauri
jammu,13,Rajauri
jammu,13,Rajauri
jammu,14,Punch
jammu,14,Punch
jammu,14,Punch
jammu,14,Punch
jammu,14,Punch
jammu,14,Punch
jammu,10,Udhampur
jammu,10,Udhampur
jammu,10,Udhampur
jammu,11,Kathua
jammu,11,Kathua
jammu,11,Kathua
jammu,12,Jammmu
jammu,12,Jammmu
jammu,12,Jammmu
jammu,12,Jammmu
jammu,12,Jammmu
jammu,12,Jammmu
jammu,12,Jammmu
jammu,12,Jammmu
jammu,12,Jammmu
jammu,12,Jammmu
jammu,12,Jammmu
jammu,12,Jammmu
jammu,12,Jammmu
jammu,12,Jammmu
jammu,12,Jammmu
jammu,12,Jammmu
jammu,12,Jammmu
jammu,12,Jammmu
jammu,12,Jammmu
jammu,12,Jammmu
jammu,12,Jammmu
jammu,12,Jammmu
jammu,12,Jammmu
jammu,12,Jammmu
jammu,12,Jammmu
jammu,12,Jammmu
jammu,13,Rajauri
jammu,13,Rajauri
jammu,14,Punch
jammu,14,Punch
jammu,9,Doda
jammu,9,Doda
jammu,10,Udhampur
jammu,10,Udhampur
jammu,11,Kathua
jammu,11,Kathua
jammu,12,Jammmu
jammu,12,Jammmu
jammu,12,Jammmu
karnataka,4,BELLARY
karnataka,5,BIDAR
karnataka,10,DHARWAD
karnataka,10,DHARWAD
karnataka,10,DHARWAD
karnataka,10,DHARWAD
karnataka,10,DHARWAD
karnataka,10,DHARWAD
karnataka,10,DHARWAD
karnataka,10,DHARWAD
karnataka,16,MYSORE
karnataka,16,MYSORE
karnataka,16,MYSORE
karnataka,16,MYSORE
karnataka,16,MYSORE
karnataka,16,MYSORE
karnataka,16,MYSORE
karnataka,2,BANGALORE RURAL
karnataka,2,BANGALORE RURAL
karnataka,2,BANGALORE RURAL
karnataka,2,BANGALORE RURAL
karnataka,2,BANGALORE RURAL
karnataka,2,BANGALORE RURAL
karnataka,2,BANGALORE RURAL
karnataka,2,BANGALORE RURAL
karnataka,2,BANGALORE RURAL
karnataka,2,BANGALORE RURAL
karnataka,9,DAKSHIN KANNAD
karnataka,9,DAKSHIN KANNAD
karnataka,9,DAKSHIN KANNAD
karnataka,9,DAKSHIN KANNAD
karnataka,8,CHITRADURGA
karnataka,8,CHITRADURGA
karnataka,8,CHITRADURGA
karnataka,8,CHITRADURGA
karnataka,8,CHITRADURGA
karnataka,8,CHITRADURGA
karnataka,12,HASSAN
karnataka,19,TUMKUR
karnataka,19,TUMKUR
karnataka,19,TUMKUR
karnataka,6,BIJAPUR
karnataka,6,BIJAPUR
karnataka,17,RAICHUR
karnataka,17,RAICHUR
karnataka,1,BANGALORE
karnataka,1,BANGALORE
karnataka,1,BANGALORE
karnataka,1,BANGALORE
karnataka,1,BANGALORE
karnataka,1,BANGALORE
karnataka,1,BANGALORE
karnataka,1,BANGALORE
karnataka,3,BELGAUM
karnataka,3,BELGAUM
karnataka,3,BELGAUM
karnataka,7,CHIKMAGALUR
karnataka,7,CHIKMAGALUR
karnataka,7,CHIKMAGALUR
karnataka,13,KODAGU
karnataka,13,KODAGU
karnataka,13,KODAGU
karnataka,18,SHIMOGA
karnataka,18,SHIMOGA
karnataka,18,SHIMOGA
karnataka,18,SHIMOGA
karnataka,18,SHIMOGA
karnataka,18,SHIMOGA
karnataka,18,SHIMOGA
karnataka,18,SHIMOGA
karnataka,18,SHIMOGA
karnataka,11,GULBARGA
karnataka,11,GULBARGA
karnataka,11,GULBARGA
karnataka,14,KOLAR
karnataka,14,KOLAR
karnataka,14,KOLAR
karnataka,14,KOLAR
karnataka,15,MANDYA
karnataka,15,MANDYA
karnataka,15,MANDYA
karnataka,15,MANDYA
karnataka,15,MANDYA
karnataka,15,MANDYA
karnataka,9,DAKSHIN KANNAD
karnataka,9,DAKSHIN KANNAD
karnataka,9,DAKSHIN KANNAD
karnataka,8,CHITRADURGA
karnataka,8,CHITRADURGA
karnataka,1,BANGALORE
karnataka,1,BANGALORE
karnataka,1,BANGALORE
karnataka,1,BANGALORE
karnataka,1,BANGALORE
karnataka,1,BANGALORE
karnataka,1,BANGALORE
karnataka,1,BANGALORE
karnataka,1,BANGALORE
karnataka,1,BANGALORE
karnataka,1,BANGALORE
karnataka,1,BANGALORE
karnataka,1,BANGALORE
karnataka,1,BANGALORE
karnataka,1,BANGALORE
karnataka,1,BANGALORE
karnataka,1,BANGALORE
karnataka,1,BANGALORE
karnataka,1,BANGALORE
karnataka,1,BANGALORE
karnataka,15,MANDYA
karnataka,15,MANDYA
karnataka,15,MANDYA
karnataka,5,BIDAR
karnataka,5,BIDAR
karnataka,10,DHARWAD
karnataka,10,DHARWAD
karnataka,2,BANGALORE RURAL
karnataka,2,BANGALORE RURAL
karnataka,17,RAICHUR
karnataka,17,RAICHUR
karnataka,3,BELGAUM
karnataka,3,BELGAUM
karnataka,11,GULBARGA
karnataka,11,GULBARGA
karnataka,5,BIDAR
karnataka,5,BIDAR
karnataka,5,BIDAR
karnataka,5,BIDAR
karnataka,16,MYSORE
karnataka,16,MYSORE
karnataka,2,BANGALORE RURAL
karnataka,2,BANGALORE RURAL
karnataka,9,DAKSHIN KANNAD
karnataka,9,DAKSHIN KANNAD
karnataka,9,DAKSHIN KANNAD
karnataka,9,DAKSHIN KANNAD
karnataka,12,HASSAN
karnataka,12,HASSAN
karnataka,17,RAICHUR
karnataka,17,RAICHUR
karnataka,1,BANGALORE
karnataka,1,BANGALORE
karnataka,3,BELGAUM
karnataka,3,BELGAUM
karnataka,7,CHIKMAGALUR
karnataka,7,CHIKMAGALUR
karnataka,13,KODAGU
karnataka,13,KODAGU
karnataka,18,SHIMOGA
karnataka,18,SHIMOGA
karnataka,15,MANDYA
karnataka,15,MANDYA
kerala,1,Kasaragod
kerala,1,Kasaragod
kerala,1,Kasaragod
kerala,1,Kasaragod
kerala,1,Kasaragod
kerala,1,Kasaragod
kerala,1,Kasaragod
kerala,2,Kannur
kerala,2,Kannur
kerala,2,Kannur
kerala,2,Kannur
kerala,2,Kannur
kerala,3,Wayanad
kerala,3,Wayanad
kerala,3,Wayanad
kerala,3,Wayanad
kerala,3,Wayanad
kerala,3,Wayanad
kerala,3,Wayanad
kerala,3,Wayanad
kerala,4,Kozhikode
kerala,4,Kozhikode
kerala,4,Kozhikode
kerala,4,Kozhikode
kerala,4,Kozhikode
kerala,4,Kozhikode
kerala,5,Malappuram
kerala,5,Malappuram
kerala,5,Malappuram
kerala,5,Malappuram
kerala,5,Malappuram
kerala,5,Malappuram
kerala,5,Malappuram
kerala,6,Palakkad
kerala,6,Palakkad
kerala,6,Palakkad
kerala,6,Palakkad
kerala,6,Palakkad
kerala,7,Thrissur
kerala,7,Thrissur
kerala,7,Thrissur
kerala,7,Thrissur
kerala,8,Ernakulam
kerala,8,Ernakulam
kerala,8,Ernakulam
kerala,8,Ernakulam
kerala,8,Ernakulam
kerala,9,Idukki
kerala,9,Idukki
kerala,9,Idukki
kerala,9,Idukki
kerala,9,Idukki
kerala,9,Idukki
kerala,10,Kottayam
kerala,10,Kottayam
kerala,10,Kottayam
kerala,10,Kottayam
kerala,10,Kottayam
kerala,10,Kottayam
kerala,10,Kottayam
kerala,10,Kottayam
kerala,10,Kottayam
kerala,11,Alappuzha
kerala,11,Alappuzha
kerala,11,Alappuzha
kerala,11,Alappuzha
kerala,11,Alappuzha
kerala,11,Alappuzha
kerala,12,Pathanamthitta
kerala,12,Pathanamthitta
kerala,1,Kasaragod
kerala,1,Kasaragod
kerala,1,Kasaragod
kerala,1,Kasaragod
kerala,2,Kannur
kerala,2,Kannur
kerala,2,Kannur
kerala,2,Kannur
kerala,2,Kannur
kerala,2,Kannur
kerala,5,Malappuram
kerala,5,Malappuram
kerala,6,Palakkad
kerala,6,Palakkad
kerala,6,Palakkad
kerala,6,Palakkad
kerala,6,Palakkad
kerala,6,Palakkad
kerala,6,Palakkad
kerala,6,Palakkad
kerala,6,Palakkad
kerala,9,Idukki
kerala,9,Idukki
kerala,10,Kottayam
kerala,10,Kottayam
kerala,10,Kottayam
kerala,11,Alappuzha
kerala,11,Alappuzha
kerala,11,Alappuzha
kerala,11,Alappuzha
kerala,11,Alappuzha
kerala,11,Alappuzha
kerala,4,Kozhikode
kerala,4,Kozhikode
kerala,7,Thrissur
kerala,7,Thrissur
kerala,1,Kasaragod
kerala,1,Kasaragod
kerala,1,Kasaragod
kerala,1,Kasaragod
kerala,1,Kasaragod
kerala,1,Kasaragod
kerala,1,Kasaragod
kerala,1,Kasaragod
kerala,4,Kozhikode
kerala,4,Kozhikode
kerala,5,Malappuram
kerala,5,Malappuram
kerala,5,Malappuram
kerala,5,Malappuram
kerala,5,Malappuram
kerala,5,Malappuram
kerala,6,Palakkad
kerala,6,Palakkad
kerala,9,Idukki
kerala,9,Idukki
kerala,10,Kottayam
kerala,10,Kottayam
madhya pradesh,1,Morena
madhya pradesh,1,Morena
madhya pradesh,1,Morena
madhya pradesh,1,Morena
madhya pradesh,1,Morena
madhya pradesh,1,Morena
madhya pradesh,1,Morena
madhya pradesh,1,Morena
madhya pradesh,4,Datia
madhya pradesh,4,Datia
madhya pradesh,4,Datia
madhya pradesh,5,Shivpuri
madhya pradesh,5,Shivpuri
madhya pradesh,5,Shivpuri
madhya pradesh,5,Shivpuri
madhya pradesh,6,Guna
madhya pradesh,6,Guna
madhya pradesh,6,Guna
madhya pradesh,6,Guna
madhya pradesh,6,Guna
madhya pradesh,6,Guna
madhya pradesh,6,Guna
madhya pradesh,2,Bhind
madhya pradesh,2,Bhind
madhya pradesh,2,Bhind
madhya pradesh,3,Gwalior
madhya pradesh,7,Tikamgarh
madhya pradesh,7,Tikamgarh
madhya pradesh,7,Tikamgarh
madhya pradesh,7,Tikamgarh
madhya pradesh,8,Chhatarpur
madhya pradesh,8,Chhatarpur
madhya pradesh,8,Chhatarpur
madhya pradesh,8,Chhatarpur
madhya pradesh,8,Chhatarpur
madhya pradesh,9,#N/A
madhya pradesh,9,#N/A
madhya pradesh,10,Sagar
madhya pradesh,10,Sagar
madhya pradesh,10,Sagar
madhya pradesh,10,Sagar
madhya pradesh,11,Damoh
madhya pradesh,12,Satna
madhya pradesh,12,Satna
madhya pradesh,12,Satna
madhya pradesh,12,Satna
madhya pradesh,13,Rewa
madhya pradesh,13,Rewa
madhya pradesh,27,Vidisha
madhya pradesh,27,Vidisha
madhya pradesh,14,Shahdol
madhya pradesh,14,Shahdol
madhya pradesh,14,Shahdol
madhya pradesh,15,Sidhi
madhya pradesh,15,Sidhi
madhya pradesh,15,Sidhi
madhya pradesh,15,Sidhi
madhya pradesh,39,Surguja
madhya pradesh,39,Surguja
madhya pradesh,39,Surguja
madhya pradesh,39,Surguja
madhya pradesh,39,Surguja
madhya pradesh,19,Shajapur
madhya pradesh,21,Jhabua
madhya pradesh,21,Jhabua
madhya pradesh,21,Jhabua
madhya pradesh,22,Dhar
madhya pradesh,22,Dhar
madhya pradesh,22,Dhar
madhya pradesh,22,Dhar
madhya pradesh,22,Dhar
madhya pradesh,26,Rajgarh
madhya pradesh,26,Rajgarh
madhya pradesh,26,Rajgarh
madhya pradesh,28,Bhopal
madhya pradesh,28,Bhopal
madhya pradesh,28,Bhopal
madhya pradesh,28,Bhopal
madhya pradesh,29,Sehore
madhya pradesh,29,Sehore
madhya pradesh,29,Sehore
madhya pradesh,29,Sehore
madhya pradesh,29,Sehore
madhya pradesh,29,Sehore
madhya pradesh,29,Sehore
madhya pradesh,29,Sehore
madhya pradesh,30,Raisen
madhya pradesh,30,Raisen
madhya pradesh,30,Raisen
madhya pradesh,30,Raisen
madhya pradesh,30,Raisen
madhya pradesh,30,Raisen
madhya pradesh,24,Khargone
madhya pradesh,24,Khargone
madhya pradesh,24,Khargone
madhya pradesh,24,Khargone
madhya pradesh,24,Khargone
madhya pradesh,24,Khargone
madhya pradesh,24,Khargone
madhya pradesh,35,Mandla
madhya pradesh,35,Mandla
madhya pradesh,35,Mandla
madhya pradesh,35,Mandla
madhya pradesh,35,Mandla
madhya pradesh,35,Mandla
madhya pradesh,35,Mandla
madhya pradesh,45,Bastar
madhya pradesh,45,Bastar
madhya pradesh,45,Bastar
madhya pradesh,45,Bastar
madhya pradesh,45,Bastar
madhya pradesh,45,Bastar
madhya pradesh,45,Bastar
madhya pradesh,45,Bastar
madhya pradesh,45,Bastar
madhya pradesh,45,Bastar
madhya pradesh,25,East Nimar (Khandwa)
madhya pradesh,25,East Nimar (Khandwa)
madhya pradesh,25,East Nimar (Khandwa)
madhya pradesh,25,East Nimar (Khandwa)
madhya pradesh,31,Betul
madhya pradesh,31,Betul
madhya pradesh,31,Betul
madhya pradesh,31,Betul
madhya pradesh,31,Betul
madhya pradesh,32,Hoshangabad
madhya pradesh,32,Hoshangabad
madhya pradesh,32,Hoshangabad
madhya pradesh,32,Hoshangabad
madhya pradesh,32,Hoshangabad
madhya pradesh,32,Hoshangabad
madhya pradesh,32,Hoshangabad
madhya pradesh,16,Mandsaur
madhya pradesh,16,Mandsaur
madhya pradesh,17,Ratlam
madhya pradesh,18,Ujjain
madhya pradesh,18,Ujjain
madhya pradesh,20,Dewas
madhya pradesh,20,Dewas
madhya pradesh,23,Indore
madhya pradesh,33,Jabalpur
madhya pradesh,33,Jabalpur
madhya pradesh,36,Chhindwara
madhya pradesh,36,Chhindwara
madhya pradesh,37,Seoni
madhya pradesh,37,Seoni
madhya pradesh,37,Seoni
madhya pradesh,37,Seoni
madhya pradesh,38,Balaghat
madhya pradesh,38,Balaghat
madhya pradesh,40,Bilaspur
madhya pradesh,40,Bilaspur
madhya pradesh,40,Bilaspur
madhya pradesh,40,Bilaspur
madhya pradesh,40,Bilaspur
madhya pradesh,40,Bilaspur
madhya pradesh,40,Bilaspur
madhya pradesh,41,Raigarh
madhya pradesh,41,Raigarh
madhya pradesh,41,Raigarh
madhya pradesh,41,Raigarh
madhya pradesh,41,Raigarh
madhya pradesh,42,Rajnandgaon
madhya pradesh,42,Rajnandgaon
madhya pradesh,42,Rajnandgaon
madhya pradesh,43,Durg
madhya pradesh,44,Raipur
madhya pradesh,44,Raipur
madhya pradesh,28,Bhopal
madhya pradesh,28,Bhopal
madhya pradesh,28,Bhopal
madhya pradesh,28,Bhopal
madhya pradesh,28,Bhopal
madhya pradesh,28,Bhopal
madhya pradesh,28,Bhopal
madhya pradesh,28,Bhopal
madhya pradesh,28,Bhopal
madhya pradesh,28,Bhopal
madhya pradesh,23,Indore
madhya pradesh,23,Indore
madhya pradesh,23,Indore
madhya pradesh,23,Indore
madhya pradesh,33,Jabalpur
madhya pradesh,33,Jabalpur
madhya pradesh,3,Gwalior
madhya pradesh,3,Gwalior
madhya pradesh,2,Bhind
madhya pradesh,2,Bhind
madhya pradesh,40,Bilaspur
madhya pradesh,40,Bilaspur
madhya pradesh,11,Damoh
madhya pradesh,11,Damoh
madhya pradesh,4,Datia
madhya pradesh,4,Datia
madhya pradesh,43,Durg
madhya pradesh,43,Durg
madhya pradesh,6,Guna
madhya pradesh,6,Guna
madhya pradesh,24,Khargone
madhya pradesh,24,Khargone
madhya pradesh,25,East Nimar (Khandwa)
madhya pradesh,25,East Nimar (Khandwa)
madhya pradesh,1,Morena
madhya pradesh,1,Morena
madhya pradesh,44,Raipur
madhya pradesh,44,Raipur
madhya pradesh,26,Rajgarh
madhya pradesh,26,Rajgarh
madhya pradesh,10,Sagar
madhya pradesh,10,Sagar
madhya pradesh,29,Sehore
madhya pradesh,29,Sehore
madhya pradesh,27,Vidisha
madhya pradesh,27,Vidisha
madhya pradesh,21,Jhabua
madhya pradesh,21,Jhabua
madhya pradesh,43,Durg
madhya pradesh,43,Durg
madhya pradesh,25,East Nimar (Khandwa)
madhya pradesh,25,East Nimar (Khandwa)
madhya pradesh,36,Chhindwara
madhya pradesh,36,Chhindwara
madhya pradesh,22,Dhar
madhya pradesh,22,Dhar
madhya pradesh,13,Rewa
madhya pradesh,13,Rewa
madhya pradesh,32,Hoshangabad
madhya pradesh,32,Hoshangabad
madhya pradesh,5,Shivpuri
madhya pradesh,5,Shivpuri
madhya pradesh,45,Bastar
madhya pradesh,45,Bastar
madhya pradesh,23,Indore
madhya pradesh,23,Indore
madhya pradesh,16,Mandsaur
madhya pradesh,16,Mandsaur
madhya pradesh,14,Shahdol
madhya pradesh,14,Shahdol
madhya pradesh,8,Chhatarpur
madhya pradesh,8,Chhatarpur
madhya pradesh,31,Betul
madhya pradesh,31,Betul
madhya pradesh,18,Ujjain
madhya pradesh,18,Ujjain
maharashtra,2,THANE
maharashtra,2,THANE
maharashtra,3,RAIGARH
maharashtra,4,RATNAGIRI
maharashtra,4,RATNAGIRI
maharashtra,4,RATNAGIRI
maharashtra,4,RATNAGIRI
maharashtra,4,RATNAGIRI
maharashtra,4,RATNAGIRI
maharashtra,4,RATNAGIRI
maharashtra,5,SINDHUDURG
maharashtra,5,SINDHUDURG
maharashtra,6,NASHIK
maharashtra,6,NASHIK
maharashtra,7,DHULE
maharashtra,7,DHULE
maharashtra,7,DHULE
maharashtra,7,DHULE
maharashtra,7,DHULE
maharashtra,7,DHULE
maharashtra,7,DHULE
maharashtra,8,JALGAON
maharashtra,8,JALGAON
maharashtra,9,AHMADNAGAR
maharashtra,9,AHMADNAGAR
maharashtra,9,AHMADNAGAR
maharashtra,9,AHMADNAGAR
maharashtra,9,AHMADNAGAR
maharashtra,9,AHMADNAGAR
maharashtra,10,PUNE
maharashtra,10,PUNE
maharashtra,10,PUNE
maharashtra,10,PUNE
maharashtra,10,PUNE
maharashtra,11,SATARA
maharashtra,11,SATARA
maharashtra,11,SATARA
maharashtra,11,SATARA
maharashtra,11,SATARA
maharashtra,12,SANGLI
maharashtra,12,SANGLI
maharashtra,13,SOLAPUR
maharashtra,13,SOLAPUR
maharashtra,14,KOLHAPUR
maharashtra,14,KOLHAPUR
maharashtra,14,KOLHAPUR
maharashtra,14,KOLHAPUR
maharashtra,14,KOLHAPUR
maharashtra,15,AURANGABAD
maharashtra,15,AURANGABAD
maharashtra,15,AURANGABAD
maharashtra,16,JALNA
maharashtra,16,JALNA
maharashtra,17,PARBHANI
maharashtra,17,PARBHANI
maharashtra,17,PARBHANI
maharashtra,17,PARBHANI
maharashtra,18,BID
maharashtra,18,BID
maharashtra,18,BID
maharashtra,18,BID
maharashtra,19,NANDED
maharashtra,19,NANDED
maharashtra,19,NANDED
maharashtra,19,NANDED
maharashtra,20,#N/A
maharashtra,21,LATUR
maharashtra,21,LATUR
maharashtra,22,BULDANA
maharashtra,22,BULDANA
maharashtra,23,AKOLA
maharashtra,24,AMRAVATI
maharashtra,24,AMRAVATI
maharashtra,24,AMRAVATI
maharashtra,25,YAVATMAL
maharashtra,25,YAVATMAL
maharashtra,26,WARDHA
maharashtra,26,WARDHA
maharashtra,26,WARDHA
maharashtra,26,WARDHA
maharashtra,26,WARDHA
maharashtra,1,MUMBAI
maharashtra,1,MUMBAI
maharashtra,1,MUMBAI
maharashtra,1,MUMBAI
maharashtra,1,MUMBAI
maharashtra,1,MUMBAI
maharashtra,1,MUMBAI
maharashtra,1,MUMBAI
maharashtra,1,MUMBAI
maharashtra,1,MUMBAI
maharashtra,1,MUMBAI
maharashtra,1,MUMBAI
maharashtra,1,MUMBAI
maharashtra,1,MUMBAI
maharashtra,1,MUMBAI
maharashtra,1,MUMBAI
maharashtra,1,MUMBAI
maharashtra,1,MUMBAI
maharashtra,1,MUMBAI
maharashtra,1,MUMBAI
maharashtra,1,MUMBAI
maharashtra,1,MUMBAI
maharashtra,1,MUMBAI
maharashtra,1,MUMBAI
maharashtra,1,MUMBAI
maharashtra,1,MUMBAI
maharashtra,1,MUMBAI
maharashtra,1,MUMBAI
maharashtra,1,MUMBAI
maharashtra,1,MUMBAI
maharashtra,1,MUMBAI
maharashtra,1,MUMBAI
maharashtra,9,AHMADNAGAR
maharashtra,9,AHMADNAGAR
maharashtra,9,AHMADNAGAR
maharashtra,9,AHMADNAGAR
maharashtra,9,AHMADNAGAR
maharashtra,9,AHMADNAGAR
maharashtra,24,AMRAVATI
maharashtra,24,AMRAVATI
maharashtra,24,AMRAVATI
maharashtra,24,AMRAVATI
maharashtra,5,SINDHUDURG
maharashtra,5,SINDHUDURG
maharashtra,6,NASHIK
maharashtra,6,NASHIK
maharashtra,11,SATARA
maharashtra,11,SATARA
maharashtra,12,SANGLI
maharashtra,12,SANGLI
maharashtra,14,KOLHAPUR
maharashtra,14,KOLHAPUR
maharashtra,16,JALNA
maharashtra,16,JALNA
maharashtra,21,LATUR
maharashtra,21,LATUR
maharashtra,23,AKOLA
maharashtra,23,AKOLA
maharashtra,2,THANE
maharashtra,2,THANE
maharashtra,4,RATNAGIRI
maharashtra,4,RATNAGIRI
maharashtra,6,NASHIK
maharashtra,6,NASHIK
maharashtra,7,DHULE
maharashtra,7,DHULE
maharashtra,10,PUNE
maharashtra,10,PUNE
maharashtra,13,SOLAPUR
maharashtra,13,SOLAPUR
maharashtra,16,JALNA
maharashtra,16,JALNA
maharashtra,20,#N/A
maharashtra,20,#N/A
maharashtra,22,BULDANA
maharashtra,22,BULDANA
maharashtra,25,YAVATMAL
maharashtra,25,YAVATMAL
manipur,1,SENAPATI
manipur,1,SENAPATI
manipur,1,SENAPATI
manipur,1,SENAPATI
manipur,1,SENAPATI
manipur,1,SENAPATI
manipur,1,SENAPATI
manipur,2,TAMENGLONG
manipur,3,CHURACHANPUR
manipur,3,CHURACHANPUR
manipur,3,CHURACHANPUR
manipur,3,CHURACHANPUR
manipur,3,CHURACHANPUR
manipur,5,THOUBAL
manipur,5,THOUBAL
manipur,5,THOUBAL
manipur,5,THOUBAL
manipur,5,THOUBAL
manipur,5,THOUBAL
manipur,5,THOUBAL
manipur,5,THOUBAL
manipur,5,THOUBAL
manipur,5,THOUBAL
manipur,5,THOUBAL
manipur,5,THOUBAL
manipur,5,THOUBAL
manipur,5,THOUBAL
manipur,5,THOUBAL
manipur,5,THOUBAL
manipur,5,THOUBAL
manipur,5,THOUBAL
manipur,5,THOUBAL
manipur,5,THOUBAL
manipur,5,THOUBAL
manipur,5,THOUBAL
manipur,5,THOUBAL
manipur,5,THOUBAL
manipur,5,THOUBAL
manipur,6,BISHNUPUR
manipur,6,BISHNUPUR
manipur,6,BISHNUPUR
manipur,6,BISHNUPUR
manipur,5,THOUBAL
manipur,5,THOUBAL
manipur,5,THOUBAL
manipur,5,THOUBAL
manipur,5,THOUBAL
manipur,5,THOUBAL
manipur,5,THOUBAL
manipur,5,THOUBAL
manipur,3,CHURACHANPUR
manipur,3,CHURACHANPUR
manipur,5,THOUBAL
manipur,5,THOUBAL
manipur,5,THOUBAL
manipur,5,THOUBAL
manipur,5,THOUBAL
manipur,5,THOUBAL
manipur,5,THOUBAL
manipur,5,THOUBAL
manipur,5,THOUBAL
manipur,5,THOUBAL
meghalaya,1,JAINTIA HILLS
meghalaya,1,JAINTIA HILLS
meghalaya,1,JAINTIA HILLS
meghalaya,1,JAINTIA HILLS
meghalaya,1,JAINTIA HILLS
meghalaya,1,JAINTIA HILLS
meghalaya,2,EAST KHASI HILLS
meghalaya,2,EAST KHASI HILLS
meghalaya,2,EAST KHASI HILLS
meghalaya,2,EAST KHASI HILLS
meghalaya,2,EAST KHASI HILLS
meghalaya,2,EAST KHASI HILLS
meghalaya,2,EAST KHASI HILLS
meghalaya,2,EAST KHASI HILLS
meghalaya,2,EAST KHASI HILLS
meghalaya,2,EAST KHASI HILLS
meghalaya,2,EAST KHASI HILLS
meghalaya,2,EAST KHASI HILLS
meghalaya,2,EAST KHASI HILLS
meghalaya,2,EAST KHASI HILLS
meghalaya,2,EAST KHASI HILLS
meghalaya,2,EAST KHASI HILLS
meghalaya,3,WEST KHASI HILLS
meghalaya,3,WEST KHASI HILLS
meghalaya,3,WEST KHASI HILLS
meghalaya,3,WEST KHASI HILLS
meghalaya,3,WEST KHASI HILLS
meghalaya,3,WEST KHASI HILLS
meghalaya,3,WEST KHASI HILLS
meghalaya,4,EAST GORA HILLS
meghalaya,4,EAST GORA HILLS
meghalaya,4,EAST GORA HILLS
meghalaya,4,EAST GORA HILLS
meghalaya,4,EAST GORA HILLS
meghalaya,4,EAST GORA HILLS
meghalaya,5,WEST GARO HILLS
meghalaya,5,WEST GARO HILLS
meghalaya,5,WEST GARO HILLS
meghalaya,5,WEST GARO HILLS
meghalaya,5,WEST GARO HILLS
meghalaya,5,WEST GARO HILLS
meghalaya,5,WEST GARO HILLS
meghalaya,5,WEST GARO HILLS
meghalaya,5,WEST GARO HILLS
meghalaya,5,WEST GARO HILLS
meghalaya,5,WEST GARO HILLS
meghalaya,5,WEST GARO HILLS
meghalaya,5,WEST GARO HILLS
meghalaya,5,WEST GARO HILLS
meghalaya,5,WEST GARO HILLS
meghalaya,2,EAST KHASI HILLS
meghalaya,2,EAST KHASI HILLS
meghalaya,2,EAST KHASI HILLS
meghalaya,2,EAST KHASI HILLS
meghalaya,2,EAST KHASI HILLS
meghalaya,2,EAST KHASI HILLS
meghalaya,2,EAST KHASI HILLS
meghalaya,2,EAST KHASI HILLS
meghalaya,1,JAINTIA HILLS
meghalaya,1,JAINTIA HILLS
meghalaya,5,WEST GARO HILLS
meghalaya,5,WEST GARO HILLS
mizoram,1,AIZAWL
mizoram,1,AIZAWL
mizoram,1,AIZAWL
mizoram,1,AIZAWL
mizoram,1,AIZAWL
mizoram,1,AIZAWL
mizoram,1,AIZAWL
mizoram,1,AIZAWL
mizoram,1,AIZAWL
mizoram,1,AIZAWL
mizoram,1,AIZAWL
mizoram,1,AIZAWL
mizoram,1,AIZAWL
mizoram,1,AIZAWL
mizoram,1,AIZAWL
mizoram,1,AIZAWL
mizoram,2,LUNGLEI
mizoram,2,LUNGLEI
mizoram,2,LUNGLEI
mizoram,2,LUNGLEI
mizoram,2,LUNGLEI
mizoram,2,LUNGLEI
mizoram,3,CHHIMTUIPUI
mizoram,3,CHHIMTUIPUI
mizoram,3,CHHIMTUIPUI
mizoram,1,AIZAWL
mizoram,1,AIZAWL
mizoram,1,AIZAWL
mizoram,1,AIZAWL
mizoram,1,AIZAWL
mizoram,1,AIZAWL
mizoram,1,AIZAWL
mizoram,1,AIZAWL
mizoram,1,AIZAWL
mizoram,1,AIZAWL
mizoram,1,AIZAWL
mizoram,1,AIZAWL
mizoram,1,AIZAWL
mizoram,1,AIZAWL
mizoram,1,AIZAWL
mizoram,2,LUNGLEI
mizoram,2,LUNGLEI
mizoram,2,LUNGLEI
mizoram,1,AIZAWL
mizoram,1,AIZAWL
mizoram,1,AIZAWL
mizoram,1,AIZAWL
mizoram,1,AIZAWL
mizoram,1,AIZAWL
mizoram,1,AIZAWL
mizoram,1,AIZAWL
mizoram,1,AIZAWL
mizoram,1,AIZAWL
mizoram,3,CHHIMTUIPUI
mizoram,3,CHHIMTUIPUI
nagaland,1,KOHIMA
nagaland,1,KOHIMA
nagaland,1,KOHIMA
nagaland,1,KOHIMA
nagaland,1,KOHIMA
nagaland,1,KOHIMA
nagaland,1,KOHIMA
nagaland,1,KOHIMA
nagaland,1,KOHIMA
nagaland,1,KOHIMA
nagaland,1,KOHIMA
nagaland,1,KOHIMA
nagaland,1,KOHIMA
nagaland,1,KOHIMA
nagaland,2,PHEK
nagaland,2,PHEK
nagaland,2,PHEK
nagaland,2,PHEK
nagaland,2,PHEK
nagaland,2,PHEK
nagaland,3,ZUNHEBOTO
nagaland,3,ZUNHEBOTO
nagaland,3,ZUNHEBOTO
nagaland,3,ZUNHEBOTO
nagaland,4,WOKHA
nagaland,4,WOKHA
nagaland,4,WOKHA
nagaland,5,MOKOKCHUNG
nagaland,5,MOKOKCHUNG
nagaland,5,MOKOKCHUNG
nagaland,5,MOKOKCHUNG
nagaland,5,MOKOKCHUNG
nagaland,5,MOKOKCHUNG
nagaland,5,MOKOKCHUNG
nagaland,6,TUENSANG
nagaland,6,TUENSANG
nagaland,6,TUENSANG
nagaland,6,TUENSANG
nagaland,6,TUENSANG
nagaland,6,TUENSANG
nagaland,6,TUENSANG
nagaland,6,TUENSANG
nagaland,6,TUENSANG
nagaland,6,TUENSANG
nagaland,7,MON
nagaland,7,MON
nagaland,7,MON
nagaland,7,MON
nagaland,7,MON
nagaland,7,MON
nagaland,7,MON
nagaland,1,KOHIMA
nagaland,1,KOHIMA
nagaland,1,KOHIMA
nagaland,1,KOHIMA
nagaland,1,KOHIMA
nagaland,3,ZUNHEBOTO
nagaland,3,ZUNHEBOTO
nagaland,5,MOKOKCHUNG
nagaland,5,MOKOKCHUNG
nagaland,7,MON
nagaland,7,MON
orissa,1,Sambalpur
orissa,1,Sambalpur
orissa,1,Sambalpur
orissa,1,Sambalpur
orissa,1,Sambalpur
orissa,1,Sambalpur
orissa,1,Sambalpur
orissa,1,Sambalpur
orissa,1,Sambalpur
orissa,1,Sambalpur
orissa,2,Sundargarh
orissa,2,Sundargarh
orissa,2,Sundargarh
orissa,2,Sundargarh
orissa,2,Sundargarh
orissa,3,Kendujhar
orissa,3,Kendujhar
orissa,3,Kendujhar
orissa,4,Mayurbhanj
orissa,4,Mayurbhanj
orissa,4,Mayurbhanj
orissa,4,Mayurbhanj
orissa,4,Mayurbhanj
orissa,4,Mayurbhanj
orissa,5,Baleshwar
orissa,5,Baleshwar
orissa,5,Baleshwar
orissa,5,Baleshwar
orissa,5,Baleshwar
orissa,5,Baleshwar
orissa,5,Baleshwar
orissa,5,Baleshwar
orissa,5,Baleshwar
orissa,6,Cuttack
orissa,6,Cuttack
orissa,6,Cuttack
orissa,6,Cuttack
orissa,6,Cuttack
orissa,6,Cuttack
orissa,6,Cuttack
orissa,6,Cuttack
orissa,6,Cuttack
orissa,6,Cuttack
orissa,6,Cuttack
orissa,6,Cuttack
orissa,6,Cuttack
orissa,6,Cuttack
orissa,6,Cuttack
orissa,7,Dhenkanal
orissa,7,Dhenkanal
orissa,7,Dhenkanal
orissa,7,Dhenkanal
orissa,7,Dhenkanal
orissa,7,Dhenkanal
orissa,7,Dhenkanal
orissa,7,Dhenkanal
orissa,8,Phulabani
orissa,8,Phulabani
orissa,8,Phulabani
orissa,8,Phulabani
orissa,8,Phulabani
orissa,9,Balangir
orissa,9,Balangir
orissa,9,Balangir
orissa,9,Balangir
orissa,10,Kalahandi
orissa,10,Kalahandi
orissa,10,Kalahandi
orissa,10,Kalahandi
orissa,11,Koraput
orissa,11,Koraput
orissa,11,Koraput
orissa,11,Koraput
orissa,11,Koraput
orissa,11,Koraput
orissa,11,Koraput
orissa,12,Ganjam
orissa,12,Ganjam
orissa,12,Ganjam
orissa,12,Ganjam
orissa,12,Ganjam
orissa,12,Ganjam
orissa,12,Ganjam
orissa,12,Ganjam
orissa,12,Ganjam
orissa,13,Puri
orissa,13,Puri
orissa,13,Puri
orissa,13,Puri
orissa,13,Puri
orissa,13,Puri
orissa,13,Puri
orissa,13,Puri
orissa,13,Puri
orissa,1,Sambalpur
orissa,1,Sambalpur
orissa,2,Sundargarh
orissa,2,Sundargarh
orissa,2,Sundargarh
orissa,2,Sundargarh
orissa,2,Sundargarh
orissa,6,Cuttack
orissa,6,Cuttack
orissa,6,Cuttack
orissa,6,Cuttack
orissa,6,Cuttack
orissa,12,Ganjam
orissa,12,Ganjam
orissa,12,Ganjam
orissa,13,Puri
orissa,13,Puri
orissa,13,Puri
orissa,13,Puri
orissa,13,Puri
orissa,4,Mayurbhanj
orissa,4,Mayurbhanj
orissa,9,Balangir
orissa,9,Balangir
orissa,10,Kalahandi
orissa,10,Kalahandi
orissa,11,Koraput
orissa,11,Koraput
orissa,12,Ganjam
orissa,12,Ganjam
orissa,13,Puri
orissa,13,Puri
orissa,1,Sambalpur
orissa,1,Sambalpur
orissa,1,Sambalpur
orissa,1,Sambalpur
orissa,5,Baleshwar
orissa,5,Baleshwar
orissa,6,Cuttack
orissa,6,Cuttack
orissa,6,Cuttack
orissa,6,Cuttack
orissa,7,Dhenkanal
orissa,7,Dhenkanal
orissa,11,Koraput
orissa,11,Koraput
orissa,13,Puri
orissa,13,Puri
orissa,3,Kendujhar
orissa,3,Kendujhar
punjab,1,GURDASPUR
punjab,1,GURDASPUR
punjab,1,GURDASPUR
punjab,2,AMRITSAR
punjab,2,AMRITSAR
punjab,2,AMRITSAR
punjab,2,AMRITSAR
punjab,2,AMRITSAR
punjab,2,AMRITSAR
punjab,2,AMRITSAR
punjab,2,AMRITSAR
punjab,3,FIROZPUR
punjab,3,FIROZPUR
punjab,3,FIROZPUR
punjab,3,FIROZPUR
punjab,3,FIROZPUR
punjab,3,FIROZPUR
punjab,3,FIROZPUR
punjab,3,FIROZPUR
punjab,3,FIROZPUR
punjab,5,JALANDHAR
punjab,5,JALANDHAR
punjab,5,JALANDHAR
punjab,5,JALANDHAR
punjab,5,JALANDHAR
punjab,5,JALANDHAR
punjab,5,JALANDHAR
punjab,5,JALANDHAR
punjab,5,JALANDHAR
punjab,6,KAPURTHALA
punjab,6,KAPURTHALA
punjab,7,HOSHIARPUR
punjab,7,HOSHIARPUR
punjab,7,HOSHIARPUR
punjab,7,HOSHIARPUR
punjab,7,HOSHIARPUR
punjab,7,HOSHIARPUR
punjab,8,RUPNAGAR
punjab,4,LUDHIANA
punjab,4,LUDHIANA
punjab,4,LUDHIANA
punjab,4,LUDHIANA
punjab,4,LUDHIANA
punjab,9,PATIALA
punjab,9,PATIALA
punjab,9,PATIALA
punjab,9,PATIALA
punjab,9,PATIALA
punjab,9,PATIALA
punjab,9,PATIALA
punjab,10,SANGRUR
punjab,10,SANGRUR
punjab,10,SANGRUR
punjab,10,SANGRUR
punjab,10,SANGRUR
punjab,11,BATHINDA
punjab,11,BATHINDA
punjab,11,BATHINDA
punjab,11,BATHINDA
punjab,12,FARIDKOT
punjab,12,FARIDKOT
punjab,12,FARIDKOT
punjab,12,FARIDKOT
punjab,12,FARIDKOT
punjab,12,FARIDKOT
punjab,12,FARIDKOT
punjab,2,AMRITSAR
punjab,2,AMRITSAR
punjab,2,AMRITSAR
punjab,2,AMRITSAR
punjab,2,AMRITSAR
punjab,5,JALANDHAR
punjab,5,JALANDHAR
punjab,5,JALANDHAR
punjab,5,JALANDHAR
punjab,4,LUDHIANA
punjab,4,LUDHIANA
punjab,4,LUDHIANA
punjab,4,LUDHIANA
punjab,4,LUDHIANA
punjab,4,LUDHIANA
punjab,4,LUDHIANA
punjab,3,FIROZPUR
punjab,3,FIROZPUR
punjab,7,HOSHIARPUR
punjab,7,HOSHIARPUR
punjab,9,PATIALA
punjab,9,PATIALA
punjab,11,BATHINDA
punjab,11,BATHINDA
punjab,2,AMRITSAR
punjab,2,AMRITSAR
punjab,1,GURDASPUR
punjab,1,GURDASPUR
punjab,1,GURDASPUR
punjab,1,GURDASPUR
punjab,5,JALANDHAR
punjab,5,JALANDHAR
punjab,5,JALANDHAR
punjab,5,JALANDHAR
punjab,10,SANGRUR
punjab,10,SANGRUR
punjab,10,SANGRUR
punjab,10,SANGRUR
punjab,10,SANGRUR
punjab,10,SANGRUR
punjab,12,FARIDKOT
punjab,12,FARIDKOT
punjab,12,FARIDKOT
punjab,12,FARIDKOT
rajasthan,1,GANGANAGAR
rajasthan,1,GANGANAGAR
rajasthan,1,GANGANAGAR
rajasthan,1,GANGANAGAR
rajasthan,1,GANGANAGAR
rajasthan,1,GANGANAGAR
rajasthan,3,CHURU
rajasthan,3,CHURU
rajasthan,3,CHURU
rajasthan,3,CHURU
rajasthan,3,CHURU
rajasthan,4,JHUNJHUNUN
rajasthan,4,JHUNJHUNUN
rajasthan,4,JHUNJHUNUN
rajasthan,5,ALWAR
rajasthan,5,ALWAR
rajasthan,5,ALWAR
rajasthan,5,ALWAR
rajasthan,5,ALWAR
rajasthan,5,ALWAR
rajasthan,6,BHARATPUR
rajasthan,6,BHARATPUR
rajasthan,6,BHARATPUR
rajasthan,6,BHARATPUR
rajasthan,6,BHARATPUR
rajasthan,6,BHARATPUR
rajasthan,6,BHARATPUR
rajasthan,6,BHARATPUR
rajasthan,7,DHAULPUR
rajasthan,7,DHAULPUR
rajasthan,7,DHAULPUR
rajasthan,7,DHAULPUR
rajasthan,7,DHAULPUR
rajasthan,7,DHAULPUR
rajasthan,8,SAWAI MADHOPUR
rajasthan,8,SAWAI MADHOPUR
rajasthan,8,SAWAI MADHOPUR
rajasthan,8,SAWAI MADHOPUR
rajasthan,8,SAWAI MADHOPUR
rajasthan,8,SAWAI MADHOPUR
rajasthan,8,SAWAI MADHOPUR
rajasthan,8,SAWAI MADHOPUR
rajasthan,9,JAIPUR
rajasthan,9,JAIPUR
rajasthan,9,JAIPUR
rajasthan,9,JAIPUR
rajasthan,10,SIKAR
rajasthan,10,SIKAR
rajasthan,10,SIKAR
rajasthan,11,AJMER
rajasthan,11,AJMER
rajasthan,11,AJMER
rajasthan,12,TONK
rajasthan,12,TONK
rajasthan,13,JAISALMER
rajasthan,13,JAISALMER
rajasthan,13,JAISALMER
rajasthan,13,JAISALMER
rajasthan,13,JAISALMER
rajasthan,13,JAISALMER
rajasthan,14,JODHPUR
rajasthan,14,JODHPUR
rajasthan,14,JODHPUR
rajasthan,14,JODHPUR
rajasthan,14,JODHPUR
rajasthan,14,JODHPUR
rajasthan,14,JODHPUR
rajasthan,15,NAGAUR
rajasthan,15,NAGAUR
rajasthan,15,NAGAUR
rajasthan,16,PALI
rajasthan,16,PALI
rajasthan,16,PALI
rajasthan,16,PALI
rajasthan,16,PALI
rajasthan,17,BARMER
rajasthan,17,BARMER
rajasthan,17,BARMER
rajasthan,18,JALOR
rajasthan,18,JALOR
rajasthan,19,SIROHI
rajasthan,19,SIROHI
rajasthan,19,SIROHI
rajasthan,19,SIROHI
rajasthan,20,BHILWARA
rajasthan,20,BHILWARA
rajasthan,20,BHILWARA
rajasthan,20,BHILWARA
rajasthan,20,BHILWARA
rajasthan,20,BHILWARA
rajasthan,20,BHILWARA
rajasthan,20,BHILWARA
rajasthan,20,BHILWARA
rajasthan,20,BHILWARA
rajasthan,20,BHILWARA
rajasthan,21,UDAIPUR
rajasthan,21,UDAIPUR
rajasthan,21,UDAIPUR
rajasthan,22,CHITTAURGARH
rajasthan,22,CHITTAURGARH
rajasthan,23,DUNGARPUR
rajasthan,23,DUNGARPUR
rajasthan,23,DUNGARPUR
rajasthan,23,DUNGARPUR
rajasthan,23,DUNGARPUR
rajasthan,25,BUNDI
rajasthan,25,BUNDI
rajasthan,25,BUNDI
rajasthan,25,BUNDI
rajasthan,25,BUNDI
rajasthan,25,BUNDI
rajasthan,26,KOTA
rajasthan,26,KOTA
rajasthan,13,JAISALMER
rajasthan,13,JAISALMER
rajasthan,8,SAWAI MADHOPUR
rajasthan,8,SAWAI MADHOPUR
rajasthan,8,SAWAI MADHOPUR
rajasthan,8,SAWAI MADHOPUR
rajasthan,8,SAWAI MADHOPUR
rajasthan,8,SAWAI MADHOPUR
rajasthan,8,SAWAI MADHOPUR
rajasthan,8,SAWAI MADHOPUR
rajasthan,25,BUNDI
rajasthan,25,BUNDI
rajasthan,25,BUNDI
rajasthan,1,GANGANAGAR
rajasthan,1,GANGANAGAR
rajasthan,14,JODHPUR
rajasthan,14,JODHPUR
rajasthan,2,BIKANER
rajasthan,2,BIKANER
rajasthan,5,ALWAR
rajasthan,5,ALWAR
rajasthan,10,SIKAR
rajasthan,10,SIKAR
rajasthan,20,BHILWARA
rajasthan,20,BHILWARA
rajasthan,23,DUNGARPUR
rajasthan,23,DUNGARPUR
rajasthan,11,AJMER
rajasthan,11,AJMER
rajasthan,1,GANGANAGAR
rajasthan,1,GANGANAGAR
rajasthan,3,CHURU
rajasthan,3,CHURU
rajasthan,4,JHUNJHUNUN
rajasthan,4,JHUNJHUNUN
rajasthan,9,JAIPUR
rajasthan,9,JAIPUR
rajasthan,14,JODHPUR
rajasthan,14,JODHPUR
rajasthan,15,NAGAUR
rajasthan,15,NAGAUR
rajasthan,8,SAWAI MADHOPUR
rajasthan,8,SAWAI MADHOPUR
rajasthan,10,SIKAR
rajasthan,10,SIKAR
rajasthan,20,BHILWARA
rajasthan,20,BHILWARA
rajasthan,6,BHARATPUR
rajasthan,6,BHARATPUR
rajasthan,7,DHAULPUR
rajasthan,7,DHAULPUR
rajasthan,25,BUNDI
rajasthan,25,BUNDI
tamil nadu,7,Salem
tamil nadu,7,Salem
tamil nadu,7,Salem
tamil nadu,7,Salem
tamil nadu,8,Periyar
tamil nadu,8,Periyar
tamil nadu,8,Periyar
tamil nadu,8,Periyar
tamil nadu,8,Periyar
tamil nadu,8,Periyar
tamil nadu,8,Periyar
tamil nadu,9,Nilgiris
tamil nadu,10,Coimbatore
tamil nadu,10,Coimbatore
tamil nadu,10,Coimbatore
tamil nadu,10,Coimbatore
tamil nadu,10,Coimbatore
tamil nadu,10,Coimbatore
tamil nadu,10,Coimbatore
tamil nadu,3,North Arcot Ambedkar
tamil nadu,3,North Arcot Ambedkar
tamil nadu,3,North Arcot Ambedkar
tamil nadu,3,North Arcot Ambedkar
tamil nadu,3,North Arcot Ambedkar
tamil nadu,3,North Arcot Ambedkar
tamil nadu,3,North Arcot Ambedkar
tamil nadu,3,North Arcot Ambedkar
tamil nadu,3,North Arcot Ambedkar
tamil nadu,3,North Arcot Ambedkar
tamil nadu,3,North Arcot Ambedkar
tamil nadu,3,North Arcot Ambedkar
tamil nadu,3,North Arcot Ambedkar
tamil nadu,5,Tiruvannamalai Sambuvarayar
tamil nadu,5,Tiruvannamalai Sambuvarayar
tamil nadu,5,Tiruvannamalai Sambuvarayar
tamil nadu,5,Tiruvannamalai Sambuvarayar
tamil nadu,5,Tiruvannamalai Sambuvarayar
tamil nadu,5,Tiruvannamalai Sambuvarayar
tamil nadu,6,South Arcot
tamil nadu,6,South Arcot
tamil nadu,6,South Arcot
tamil nadu,6,South Arcot
tamil nadu,6,South Arcot
tamil nadu,6,South Arcot
tamil nadu,6,South Arcot
tamil nadu,11,Dindigul-Anna
tamil nadu,11,Dindigul-Anna
tamil nadu,11,Dindigul-Anna
tamil nadu,11,Dindigul-Anna
tamil nadu,11,Dindigul-Anna
tamil nadu,11,Dindigul-Anna
tamil nadu,16,Madurai
tamil nadu,16,Madurai
tamil nadu,16,Madurai
tamil nadu,16,Madurai
tamil nadu,2,Chengalpattu-M.G.R.
tamil nadu,2,Chengalpattu-M.G.R.
tamil nadu,2,Chengalpattu-M.G.R.
tamil nadu,2,Chengalpattu-M.G.R.
tamil nadu,2,Chengalpattu-M.G.R.
tamil nadu,2,Chengalpattu-M.G.R.
tamil nadu,2,Chengalpattu-M.G.R.
tamil nadu,2,Chengalpattu-M.G.R.
tamil nadu,2,Chengalpattu-M.G.R.
tamil nadu,2,Chengalpattu-M.G.R.
tamil nadu,2,Chengalpattu-M.G.R.
tamil nadu,2,Chengalpattu-M.G.R.
tamil nadu,2,Chengalpattu-M.G.R.
tamil nadu,4,Dharmapuri
tamil nadu,4,Dharmapuri
tamil nadu,4,Dharmapuri
tamil nadu,4,Dharmapuri
tamil nadu,4,Dharmapuri
tamil nadu,4,Dharmapuri
tamil nadu,4,Dharmapuri
tamil nadu,4,Dharmapuri
tamil nadu,4,Dharmapuri
tamil nadu,12,Tiruchirappalli
tamil nadu,12,Tiruchirappalli
tamil nadu,12,Tiruchirappalli
tamil nadu,12,Tiruchirappalli
tamil nadu,12,Tiruchirappalli
tamil nadu,12,Tiruchirappalli
tamil nadu,13,Thanjavur
tamil nadu,13,Thanjavur
tamil nadu,13,Thanjavur
tamil nadu,13,Thanjavur
tamil nadu,14,Pudukkottai
tamil nadu,14,Pudukkottai
tamil nadu,14,Pudukkottai
tamil nadu,14,Pudukkottai
tamil nadu,14,Pudukkottai
tamil nadu,15,Pasumpon Muthuramalinga The
tamil nadu,15,Pasumpon Muthuramalinga The
tamil nadu,15,Pasumpon Muthuramalinga The
tamil nadu,15,Pasumpon Muthuramalinga The
tamil nadu,15,Pasumpon Muthuramalinga The
tamil nadu,15,Pasumpon Muthuramalinga The
tamil nadu,15,Pasumpon Muthuramalinga The
tamil nadu,15,Pasumpon Muthuramalinga The
tamil nadu,1,Chennai
tamil nadu,1,Chennai
tamil nadu,1,Chennai
tamil nadu,1,Chennai
tamil nadu,1,Chennai
tamil nadu,1,Chennai
tamil nadu,1,Chennai
tamil nadu,1,Chennai
tamil nadu,1,Chennai
tamil nadu,1,Chennai
tamil nadu,1,Chennai
tamil nadu,1,Chennai
tamil nadu,1,Chennai
tamil nadu,1,Chennai
tamil nadu,1,Chennai
tamil nadu,1,Chennai
tamil nadu,1,Chennai
tamil nadu,1,Chennai
tamil nadu,1,Chennai
tamil nadu,1,Chennai
tamil nadu,8,Periyar
tamil nadu,8,Periyar
tamil nadu,8,Periyar
tamil nadu,8,Periyar
tamil nadu,10,Coimbatore
tamil nadu,10,Coimbatore
tamil nadu,10,Coimbatore
tamil nadu,10,Coimbatore
tamil nadu,11,Dindigul-Anna
tamil nadu,11,Dindigul-Anna
tamil nadu,11,Dindigul-Anna
tamil nadu,6,South Arcot
tamil nadu,6,South Arcot
tamil nadu,6,South Arcot
tamil nadu,9,Nilgiris
tamil nadu,9,Nilgiris
tamil nadu,5,Tiruvannamalai Sambuvarayar
tamil nadu,5,Tiruvannamalai Sambuvarayar
tamil nadu,16,Madurai
tamil nadu,16,Madurai
tamil nadu,12,Tiruchirappalli
tamil nadu,12,Tiruchirappalli
tamil nadu,15,Pasumpon Muthuramalinga The
tamil nadu,15,Pasumpon Muthuramalinga The
tamil nadu,9,Nilgiris
tamil nadu,9,Nilgiris
tamil nadu,10,Coimbatore
tamil nadu,10,Coimbatore
tamil nadu,9,Nilgiris
tamil nadu,9,Nilgiris
tamil nadu,8,Periyar
tamil nadu,8,Periyar
tamil nadu,11,Dindigul-Anna
tamil nadu,11,Dindigul-Anna
tamil nadu,6,South Arcot
tamil nadu,6,South Arcot
tamil nadu,3,North Arcot Ambedkar
tamil nadu,3,North Arcot Ambedkar
tamil nadu,16,Madurai
tamil nadu,16,Madurai
tamil nadu,2,Chengalpattu-M.G.R.
tamil nadu,2,Chengalpattu-M.G.R.
tamil nadu,2,Chengalpattu-M.G.R.
tamil nadu,2,Chengalpattu-M.G.R.
tamil nadu,12,Tiruchirappalli
tamil nadu,12,Tiruchirappalli
tamil nadu,14,Pudukkottai
tamil nadu,14,Pudukkottai
tamil nadu,14,Pudukkottai
tamil nadu,14,Pudukkottai
tamil nadu,14,Pudukkottai
tamil nadu,14,Pudukkottai
tamil nadu,17,Kamarajar
tamil nadu,17,Kamarajar
west bengal,2,JALPAIGURI
west bengal,2,JALPAIGURI
west bengal,2,JALPAIGURI
west bengal,3,DARJILING
west bengal,3,DARJILING
west bengal,3,DARJILING
west bengal,1,KOCHBIHAR
west bengal,1,KOCHBIHAR
west bengal,1,KOCHBIHAR
west bengal,1,KOCHBIHAR
west bengal,4,WEST DINAJPUR
west bengal,4,WEST DINAJPUR
west bengal,4,WEST DINAJPUR
west bengal,4,WEST DINAJPUR
west bengal,4,WEST DINAJPUR
west bengal,5,MALDAH
west bengal,5,MALDAH
west bengal,5,MALDAH
west bengal,5,MALDAH
west bengal,5,MALDAH
west bengal,5,MALDAH
west bengal,5,MALDAH
west bengal,5,MALDAH
west bengal,5,MALDAH
west bengal,5,MALDAH
west bengal,5,MALDAH
west bengal,5,MALDAH
west bengal,6,MURSHIDABAD
west bengal,6,MURSHIDABAD
west bengal,6,MURSHIDABAD
west bengal,6,MURSHIDABAD
west bengal,6,MURSHIDABAD
west bengal,6,MURSHIDABAD
west bengal,6,MURSHIDABAD
west bengal,6,MURSHIDABAD
west bengal,6,MURSHIDABAD
west bengal,6,MURSHIDABAD
west bengal,6,MURSHIDABAD
west bengal,6,MURSHIDABAD
west bengal,6,MURSHIDABAD
west bengal,6,MURSHIDABAD
west bengal,6,MURSHIDABAD
west bengal,6,MURSHIDABAD
west bengal,6,MURSHIDABAD
west bengal,6,MURSHIDABAD
west bengal,7,NADIA
west bengal,7,NADIA
west bengal,7,NADIA
west bengal,7,NADIA
west bengal,7,NADIA
west bengal,8,NORTH TWENTY FOUR PARGANAS
west bengal,8,NORTH TWENTY FOUR PARGANAS
west bengal,8,NORTH TWENTY FOUR PARGANAS
west bengal,8,NORTH TWENTY FOUR PARGANAS
west bengal,8,NORTH TWENTY FOUR PARGANAS
west bengal,8,NORTH TWENTY FOUR PARGANAS
west bengal,8,NORTH TWENTY FOUR PARGANAS
west bengal,8,NORTH TWENTY FOUR PARGANAS
west bengal,8,NORTH TWENTY FOUR PARGANAS
west bengal,8,NORTH TWENTY FOUR PARGANAS
west bengal,8,NORTH TWENTY FOUR PARGANAS
west bengal,8,NORTH TWENTY FOUR PARGANAS
west bengal,8,NORTH TWENTY FOUR PARGANAS
west bengal,8,NORTH TWENTY FOUR PARGANAS
west bengal,8,NORTH TWENTY FOUR PARGANAS
west bengal,10,CALCUTTA
west bengal,10,CALCUTTA
west bengal,11,HAORA
west bengal,11,HAORA
west bengal,11,HAORA
west bengal,11,HAORA
west bengal,11,HAORA
west bengal,11,HAORA
west bengal,11,HAORA
west bengal,11,HAORA
west bengal,15,PURULIYA
west bengal,15,PURULIYA
west bengal,15,PURULIYA
west bengal,15,PURULIYA
west bengal,15,PURULIYA
west bengal,15,PURULIYA
west bengal,15,PURULIYA
west bengal,15,PURULIYA
west bengal,12,HUGLI
west bengal,12,HUGLI
west bengal,12,HUGLI
west bengal,12,HUGLI
west bengal,12,HUGLI
west bengal,12,HUGLI
west bengal,12,HUGLI
west bengal,12,HUGLI
west bengal,12,HUGLI
west bengal,12,HUGLI
west bengal,12,HUGLI
west bengal,12,HUGLI
west bengal,12,HUGLI
west bengal,12,HUGLI
west bengal,13,MEDINIPUR
west bengal,16,BARDDHAMAN
west bengal,16,BARDDHAMAN
west bengal,16,BARDDHAMAN
west bengal,16,BARDDHAMAN
west bengal,16,BARDDHAMAN
west bengal,16,BARDDHAMAN
west bengal,16,BARDDHAMAN
west bengal,16,BARDDHAMAN
west bengal,14,BANKURA
west bengal,14,BANKURA
west bengal,14,BANKURA
west bengal,14,BANKURA
west bengal,9,SOUTH TWENTY FOUR PARGANAS
west bengal,9,SOUTH TWENTY FOUR PARGANAS
west bengal,9,SOUTH TWENTY FOUR PARGANAS
west bengal,9,SOUTH TWENTY FOUR PARGANAS
west bengal,9,SOUTH TWENTY FOUR PARGANAS
west bengal,9,SOUTH TWENTY FOUR PARGANAS
west bengal,9,SOUTH TWENTY FOUR PARGANAS
west bengal,9,SOUTH TWENTY FOUR PARGANAS
west bengal,9,SOUTH TWENTY FOUR PARGANAS
west bengal,9,SOUTH TWENTY FOUR PARGANAS
west bengal,9,SOUTH TWENTY FOUR PARGANAS
west bengal,9,SOUTH TWENTY FOUR PARGANAS
west bengal,9,SOUTH TWENTY FOUR PARGANAS
west bengal,10,CALCUTTA
west bengal,10,CALCUTTA
west bengal,10,CALCUTTA
west bengal,8,NORTH TWENTY FOUR PARGANAS
west bengal,8,NORTH TWENTY FOUR PARGANAS
west bengal,8,NORTH TWENTY FOUR PARGANAS
west bengal,10,CALCUTTA
west bengal,11,HAORA
west bengal,8,NORTH TWENTY FOUR PARGANAS
west bengal,8,NORTH TWENTY FOUR PARGANAS
west bengal,11,HAORA
west bengal,8,NORTH TWENTY FOUR PARGANAS
west bengal,10,CALCUTTA
west bengal,8,NORTH TWENTY FOUR PARGANAS
west bengal,8,NORTH TWENTY FOUR PARGANAS
west bengal,8,NORTH TWENTY FOUR PARGANAS
west bengal,11,HAORA
west bengal,15,PURULIYA
west bengal,15,PURULIYA
west bengal,1,KOCHBIHAR
west bengal,1,KOCHBIHAR
west bengal,13,MEDINIPUR
west bengal,13,MEDINIPUR
west bengal,3,DARJILING
west bengal,3,DARJILING
west bengal,7,NADIA
west bengal,7,NADIA
west bengal,8,NORTH TWENTY FOUR PARGANAS
west bengal,8,NORTH TWENTY FOUR PARGANAS
west bengal,12,HUGLI
west bengal,12,HUGLI
west bengal,13,MEDINIPUR
west bengal,13,MEDINIPUR
west bengal,15,PURULIYA
west bengal,15,PURULIYA
west bengal,16,BARDDHAMAN
west bengal,16,BARDDHAMAN
west bengal,5,MALDAH
west bengal,5,MALDAH
west bengal,6,MURSHIDABAD
west bengal,6,MURSHIDABAD
uttar pradesh,2,Chamoli
uttar pradesh,2,Chamoli
uttar pradesh,3,Tehri Garhwal
uttar pradesh,3,Tehri Garhwal
uttar pradesh,3,Tehri Garhwal
uttar pradesh,3,Tehri Garhwal
uttar pradesh,3,Tehri Garhwal
uttar pradesh,3,Tehri Garhwal
uttar pradesh,3,Tehri Garhwal
uttar pradesh,3,Tehri Garhwal
uttar pradesh,3,Tehri Garhwal
uttar pradesh,3,Tehri Garhwal
uttar pradesh,3,Tehri Garhwal
uttar pradesh,3,Tehri Garhwal
uttar pradesh,3,Tehri Garhwal
uttar pradesh,3,Tehri Garhwal
uttar pradesh,3,Tehri Garhwal
uttar pradesh,4,Dehradun
uttar pradesh,5,Garhwal
uttar pradesh,5,Garhwal
uttar pradesh,6,Pithoragarh
uttar pradesh,7,Almora
uttar pradesh,7,Almora
uttar pradesh,7,Almora
uttar pradesh,8,Nainital
uttar pradesh,8,Nainital
uttar pradesh,8,Nainital
uttar pradesh,8,Nainital
uttar pradesh,8,Nainital
uttar pradesh,8,Nainital
uttar pradesh,8,Nainital
uttar pradesh,8,Nainital
uttar pradesh,8,Nainital
uttar pradesh,8,Nainital
uttar pradesh,8,Nainital
uttar pradesh,8,Nainital
uttar pradesh,8,Nainital
uttar pradesh,8,Nainital
uttar pradesh,9,Bijnor
uttar pradesh,9,Bijnor
uttar pradesh,9,Bijnor
uttar pradesh,9,Bijnor
uttar pradesh,10,Moradabad
uttar pradesh,11,Rampur
uttar pradesh,11,Rampur
uttar pradesh,11,Rampur
uttar pradesh,11,Rampur
uttar pradesh,11,Rampur
uttar pradesh,12,Saharanpur
uttar pradesh,12,Saharanpur
uttar pradesh,12,Saharanpur
uttar pradesh,12,Saharanpur
uttar pradesh,12,Saharanpur
uttar pradesh,12,Saharanpur
uttar pradesh,13,Hardwar
uttar pradesh,15,Meerut
uttar pradesh,15,Meerut
uttar pradesh,15,Meerut
uttar pradesh,15,Meerut
uttar pradesh,15,Meerut
uttar pradesh,15,Meerut
uttar pradesh,16,Ghaziabad
uttar pradesh,16,Ghaziabad
uttar pradesh,14,Muzaffarnagar
uttar pradesh,14,Muzaffarnagar
uttar pradesh,14,Muzaffarnagar
uttar pradesh,14,Muzaffarnagar
uttar pradesh,14,Muzaffarnagar
uttar pradesh,14,Muzaffarnagar
uttar pradesh,14,Muzaffarnagar
uttar pradesh,17,Bulandshahr
uttar pradesh,17,Bulandshahr
uttar pradesh,17,Bulandshahr
uttar pradesh,17,Bulandshahr
uttar pradesh,17,Bulandshahr
uttar pradesh,18,Aligarh
uttar pradesh,19,Mathura
uttar pradesh,19,Mathura
uttar pradesh,20,Agra
uttar pradesh,20,Agra
uttar pradesh,20,Agra
uttar pradesh,20,Agra
uttar pradesh,21,Firozabad
uttar pradesh,21,Firozabad
uttar pradesh,21,Firozabad
uttar pradesh,21,Firozabad
uttar pradesh,21,Firozabad
uttar pradesh,22,Etah
uttar pradesh,22,Etah
uttar pradesh,22,Etah
uttar pradesh,22,Etah
uttar pradesh,23,Mainpuri
uttar pradesh,23,Mainpuri
uttar pradesh,23,Mainpuri
uttar pradesh,24,Budaun
uttar pradesh,24,Budaun
uttar pradesh,24,Budaun
uttar pradesh,25,Bareilly
uttar pradesh,25,Bareilly
uttar pradesh,25,Bareilly
uttar pradesh,25,Bareilly
uttar pradesh,26,Pilibhit
uttar pradesh,26,Pilibhit
uttar pradesh,26,Pilibhit
uttar pradesh,26,Pilibhit
uttar pradesh,27,Shahjahanpur
uttar pradesh,27,Shahjahanpur
uttar pradesh,27,Shahjahanpur
uttar pradesh,27,Shahjahanpur
uttar pradesh,27,Shahjahanpur
uttar pradesh,36,Kanpur Dehat
uttar pradesh,36,Kanpur Dehat
uttar pradesh,36,Kanpur Dehat
uttar pradesh,36,Kanpur Dehat
uttar pradesh,36,Kanpur Dehat
uttar pradesh,36,Kanpur Dehat
uttar pradesh,36,Kanpur Dehat
uttar pradesh,28,Kheri
uttar pradesh,29,Sitapur
uttar pradesh,29,Sitapur
uttar pradesh,29,Sitapur
uttar pradesh,30,Hardoi
uttar pradesh,30,Hardoi
uttar pradesh,30,Hardoi
uttar pradesh,30,Hardoi
uttar pradesh,37,Kanpur Nagar
uttar pradesh,37,Kanpur Nagar
uttar pradesh,37,Kanpur Nagar
uttar pradesh,37,Kanpur Nagar
uttar pradesh,37,Kanpur Nagar
uttar pradesh,37,Kanpur Nagar
uttar pradesh,37,Kanpur Nagar
uttar pradesh,37,Kanpur Nagar
uttar pradesh,37,Kanpur Nagar
uttar pradesh,37,Kanpur Nagar
uttar pradesh,37,Kanpur Nagar
uttar pradesh,37,Kanpur Nagar
uttar pradesh,38,Jalaun
uttar pradesh,38,Jalaun
uttar pradesh,38,Jalaun
uttar pradesh,39,Jhansi
uttar pradesh,39,Jhansi
uttar pradesh,39,Jhansi
uttar pradesh,41,Hamirpur
uttar pradesh,41,Hamirpur
uttar pradesh,42,Banda
uttar pradesh,43,Fatehpur
uttar pradesh,43,Fatehpur
uttar pradesh,43,Fatehpur
uttar pradesh,43,Fatehpur
uttar pradesh,43,Fatehpur
uttar pradesh,43,Fatehpur
uttar pradesh,43,Fatehpur
uttar pradesh,44,Pratapgarh
uttar pradesh,44,Pratapgarh
uttar pradesh,44,Pratapgarh
uttar pradesh,45,Allahabad
uttar pradesh,45,Allahabad
uttar pradesh,45,Allahabad
uttar pradesh,45,Allahabad
uttar pradesh,46,Bahraich
uttar pradesh,47,Gonda
uttar pradesh,47,Gonda
uttar pradesh,47,Gonda
uttar pradesh,47,Gonda
uttar pradesh,47,Gonda
uttar pradesh,47,Gonda
uttar pradesh,48,Barabanki
uttar pradesh,48,Barabanki
uttar pradesh,48,Barabanki
uttar pradesh,49,Faizabad
uttar pradesh,49,Faizabad
uttar pradesh,49,Faizabad
uttar pradesh,49,Faizabad
uttar pradesh,49,Faizabad
uttar pradesh,49,Faizabad
uttar pradesh,49,Faizabad
uttar pradesh,49,Faizabad
uttar pradesh,49,Faizabad
uttar pradesh,49,Faizabad
uttar pradesh,49,Faizabad
uttar pradesh,49,Faizabad
uttar pradesh,50,Sultanpur
uttar pradesh,50,Sultanpur
uttar pradesh,50,Sultanpur
uttar pradesh,50,Sultanpur
uttar pradesh,50,Sultanpur
uttar pradesh,50,Sultanpur
uttar pradesh,50,Sultanpur
uttar pradesh,50,Sultanpur
uttar pradesh,51,Siddharthnagar
uttar pradesh,51,Siddharthnagar
uttar pradesh,51,Siddharthnagar
uttar pradesh,51,Siddharthnagar
uttar pradesh,51,Siddharthnagar
uttar pradesh,52,Mahrajganj
uttar pradesh,52,Mahrajganj
uttar pradesh,52,Mahrajganj
uttar pradesh,53,Basti
uttar pradesh,53,Basti
uttar pradesh,53,Basti
uttar pradesh,54,Gorakhpur
uttar pradesh,54,Gorakhpur
uttar pradesh,54,Gorakhpur
uttar pradesh,54,Gorakhpur
uttar pradesh,55,Deoria
uttar pradesh,55,Deoria
uttar pradesh,55,Deoria
uttar pradesh,55,Deoria
uttar pradesh,31,Unnao
uttar pradesh,32,Lucknow
uttar pradesh,33,Rae Bareli
uttar pradesh,33,Rae Bareli
uttar pradesh,33,Rae Bareli
uttar pradesh,33,Rae Bareli
uttar pradesh,33,Rae Bareli
uttar pradesh,33,Rae Bareli
uttar pradesh,33,Rae Bareli
uttar pradesh,33,Rae Bareli
uttar pradesh,33,Rae Bareli
uttar pradesh,35,Etawah
uttar pradesh,35,Etawah
uttar pradesh,35,Etawah
uttar pradesh,35,Etawah
uttar pradesh,35,Etawah
uttar pradesh,35,Etawah
uttar pradesh,35,Etawah
uttar pradesh,35,Etawah
uttar pradesh,35,Etawah
uttar pradesh,35,Etawah
uttar pradesh,35,Etawah
uttar pradesh,35,Etawah
uttar pradesh,35,Etawah
uttar pradesh,35,Etawah
uttar pradesh,35,Etawah
uttar pradesh,35,Etawah
uttar pradesh,35,Etawah
uttar pradesh,35,Etawah
uttar pradesh,56,Mau
uttar pradesh,56,Mau
uttar pradesh,56,Mau
uttar pradesh,8,Nainital
uttar pradesh,8,Nainital
uttar pradesh,12,Saharanpur
uttar pradesh,12,Saharanpur
uttar pradesh,12,Saharanpur
uttar pradesh,23,Mainpuri
uttar pradesh,23,Mainpuri
uttar pradesh,23,Mainpuri
uttar pradesh,30,Hardoi
uttar pradesh,30,Hardoi
uttar pradesh,55,Deoria
uttar pradesh,55,Deoria
uttar pradesh,55,Deoria
uttar pradesh,40,#N/A
uttar pradesh,40,#N/A
uttar pradesh,40,#N/A
uttar pradesh,40,#N/A
uttar pradesh,40,#N/A
uttar pradesh,28,Kheri
uttar pradesh,28,Kheri
uttar pradesh,28,Kheri
uttar pradesh,28,Kheri
uttar pradesh,28,Kheri
uttar pradesh,28,Kheri
uttar pradesh,3,Tehri Garhwal
uttar pradesh,3,Tehri Garhwal
uttar pradesh,15,Meerut
uttar pradesh,15,Meerut
uttar pradesh,9,Bijnor
uttar pradesh,9,Bijnor
uttar pradesh,13,Hardwar
uttar pradesh,13,Hardwar
uttar pradesh,14,Muzaffarnagar
uttar pradesh,14,Muzaffarnagar
uttar pradesh,17,Bulandshahr
uttar pradesh,17,Bulandshahr
uttar pradesh,18,Aligarh
uttar pradesh,18,Aligarh
uttar pradesh,41,Hamirpur
uttar pradesh,41,Hamirpur
uttar pradesh,49,Faizabad
uttar pradesh,49,Faizabad
uttar pradesh,33,Rae Bareli
uttar pradesh,33,Rae Bareli
uttar pradesh,35,Etawah
uttar pradesh,35,Etawah
uttar pradesh,4,Dehradun
uttar pradesh,4,Dehradun
uttar pradesh,10,Moradabad
uttar pradesh,10,Moradabad
uttar pradesh,23,Mainpuri
uttar pradesh,23,Mainpuri
uttar pradesh,29,Sitapur
uttar pradesh,29,Sitapur
uttar pradesh,8,Nainital
uttar pradesh,8,Nainital
uttar pradesh,8,Nainital
uttar pradesh,8,Nainital
uttar pradesh,8,Nainital
uttar pradesh,8,Nainital
uttar pradesh,8,Nainital
uttar pradesh,8,Nainital
uttar pradesh,8,Nainital
uttar pradesh,8,Nainital
uttar pradesh,11,Rampur
uttar pradesh,11,Rampur
uttar pradesh,15,Meerut
uttar pradesh,15,Meerut
uttar pradesh,12,Saharanpur
uttar pradesh,12,Saharanpur
uttar pradesh,13,Hardwar
uttar pradesh,13,Hardwar
uttar pradesh,14,Muzaffarnagar
uttar pradesh,14,Muzaffarnagar
uttar pradesh,21,Firozabad
uttar pradesh,21,Firozabad
uttar pradesh,17,Bulandshahr
uttar pradesh,17,Bulandshahr
uttar pradesh,19,Mathura
uttar pradesh,19,Mathura
uttar pradesh,38,Jalaun
uttar pradesh,38,Jalaun
uttar pradesh,49,Faizabad
uttar pradesh,49,Faizabad
uttar pradesh,35,Etawah
uttar pradesh,35,Etawah
uttar pradesh,9,Bijnor
uttar pradesh,9,Bijnor
uttar pradesh,10,Moradabad
uttar pradesh,10,Moradabad
uttar pradesh,36,Kanpur Dehat
uttar pradesh,36,Kanpur Dehat
uttar pradesh,40,Lalitpur
uttar pradesh,40,Lalitpur
uttar pradesh,45,Allahabad
uttar pradesh,45,Allahabad
new delhi,0,Delhi
new delhi,0,Delhi
new delhi,0,Delhi
new delhi,0,Delhi
new delhi,0,Delhi
new delhi,0,Delhi
new delhi,0,Delhi
new delhi,0,Delhi
new delhi,0,Delhi
new delhi,0,Delhi
new delhi,0,Delhi
new delhi,0,Delhi
new delhi,0,Delhi
new delhi,0,Delhi
new delhi,0,Delhi
new delhi,0,Delhi
new delhi,0,Delhi
new delhi,2,Delhi
new delhi,0,Delhi
new delhi,0,Delhi
new delhi,0,Delhi
new delhi,0,Delhi
new delhi,0,Delhi
new delhi,0,Delhi
new delhi,0,Delhi
new delhi,0,Delhi
new delhi,0,Delhi
new delhi,0,Delhi
new delhi,0,Delhi
new delhi,0,Delhi
new delhi,0,Delhi
new delhi,0,Delhi
new delhi,0,Delhi
new delhi,0,Delhi
new delhi,0,Delhi
new delhi,0,Delhi
new delhi,0,Delhi
new delhi,0,Delhi
new delhi,0,Delhi
new delhi,0,Delhi
new delhi,0,Delhi
new delhi,0,Delhi
new delhi,0,Delhi
new delhi,0,Delhi
new delhi,0,Delhi
new delhi,0,Delhi
new delhi,0,Delhi
new delhi,0,Delhi
new delhi,0,Delhi
new delhi,0,Delhi
new delhi,0,Delhi
new delhi,0,Delhi
new delhi,0,Delhi
new delhi,0,Delhi
new delhi,0,Delhi
new delhi,0,Delhi
new delhi,0,Delhi
new delhi,0,Delhi
new delhi,0,Delhi
new delhi,0,Delhi
new delhi,0,Delhi
new delhi,0,Delhi
new delhi,0,Delhi
new delhi,0,Delhi
new delhi,0,Delhi
new delhi,0,Delhi
new delhi,0,Delhi
new delhi,0,Delhi
new delhi,0,Delhi
new delhi,0,Delhi
new delhi,2,Delhi
new delhi,0,Delhi
new delhi,0,Delhi
new delhi,0,Delhi
new delhi,0,Delhi
new delhi,0,Delhi
new delhi,0,Delhi
new delhi,0,Delhi
new delhi,0,Delhi
new delhi,0,Delhi
new delhi,0,Delhi
new delhi,0,Delhi
new delhi,0,Delhi
new delhi,0,Delhi
new delhi,0,Delhi
new delhi,0,Delhi
new delhi,0,Delhi
new delhi,0,Delhi
new delhi,0,Delhi
new delhi,0,Delhi
new delhi,0,Delhi
new delhi,0,Delhi
new delhi,0,Delhi
new delhi,0,Delhi
new delhi,0,Delhi
new delhi,0,Delhi
new delhi,0,Delhi
new delhi,0,Delhi
new delhi,0,Delhi
new delhi,0,Delhi
new delhi,0,Delhi
new delhi,0,Delhi
new delhi,0,Delhi
new delhi,0,Delhi
new delhi,0,Delhi
new delhi,0,Delhi
new delhi,0,Delhi
new delhi,0,Delhi
new delhi,0,Delhi
new delhi,0,Delhi
new delhi,0,Delhi
new delhi,0,Delhi
new delhi,0,Delhi
new delhi,0,Delhi
new delhi,0,Delhi
new delhi,0,Delhi
new delhi,0,Delhi
new delhi,0,Delhi
new delhi,0,Delhi
new delhi,0,Delhi
new delhi,0,Delhi
new delhi,0,Delhi
new delhi,0,Delhi
new delhi,0,Delhi
new delhi,0,Delhi
new delhi,0,Delhi
new delhi,0,Delhi
new delhi,0,Delhi
new delhi,0,Delhi
new delhi,0,Delhi
new delhi,0,Delhi
new delhi,0,Delhi
new delhi,0,Delhi
new delhi,0,Delhi
new delhi,0,Delhi
new delhi,0,Delhi
new delhi,0,Delhi
new delhi,0,Delhi
new delhi,0,Delhi
new delhi,0,Delhi
new delhi,0,Delhi
new delhi,0,Delhi
new delhi,0,Delhi
new delhi,0,Delhi
new delhi,0,Delhi
new delhi,0,Delhi
new delhi,0,Delhi
new delhi,0,Delhi
new delhi,0,Delhi
new delhi,0,Delhi
new delhi,0,Delhi
new delhi,0,Delhi
new delhi,0,Delhi
new delhi,0,Delhi
new delhi,0,Delhi
new delhi,0,Delhi
new delhi,0,Delhi
new delhi,0,Delhi
new delhi,0,Delhi
new delhi,0,Delhi
new delhi,0,Delhi
new delhi,0,Delhi
new delhi,0,Delhi
new delhi,0,Delhi
new delhi,0,Delhi
new delhi,0,Delhi
new delhi,0,Delhi
new delhi,0,Delhi
new delhi,0,Delhi
new delhi,0,Delhi
new delhi,0,Delhi
new delhi,0,Delhi
new delhi,0,Delhi
new delhi,0,Delhi
new delhi,0,Delhi
new delhi,0,Delhi
new delhi,0,Delhi
new delhi,0,Delhi
new delhi,0,Delhi
new delhi,0,Delhi
new delhi,0,Delhi
new delhi,0,Delhi
new delhi,0,Delhi
new delhi,0,Delhi
new delhi,0,Delhi
new delhi,0,Delhi
new delhi,0,Delhi
new delhi,0,Delhi
new delhi,0,Delhi
new delhi,0,Delhi
new delhi,0,Delhi
new delhi,0,Delhi
new delhi,0,Delhi
new delhi,0,Delhi
new delhi,0,Delhi
new delhi,0,Delhi
new delhi,0,Delhi
new delhi,0,Delhi
new delhi,0,Delhi
new delhi,0,Delhi
new delhi,0,Delhi
new delhi,0,Delhi
new delhi,0,Delhi
new delhi,0,Delhi
new delhi,0,Delhi
new delhi,0,Delhi
new delhi,0,Delhi
new delhi,0,Delhi
new delhi,0,Delhi
new delhi,0,Delhi
new delhi,0,Delhi
new delhi,0,Delhi
new delhi,0,Delhi
new delhi,0,Delhi
new delhi,0,Delhi
new delhi,0,Delhi
new delhi,0,Delhi
new delhi,0,Delhi
new delhi,0,Delhi
new delhi,0,Delhi
new delhi,0,Delhi
new delhi,0,Delhi
new delhi,0,Delhi
new delhi,0,Delhi
new delhi,0,Delhi
new delhi,0,Delhi
new delhi,0,Delhi
new delhi,0,Delhi
new delhi,0,Delhi
new delhi,0,Delhi
new delhi,0,Delhi
new delhi,0,Delhi
new delhi,0,Delhi
new delhi,0,Delhi
new delhi,0,Delhi
arunachalpradesh,1,TAWANG
arunachalpradesh,1,TAWANG
arunachalpradesh,1,TAWANG
arunachalpradesh,1,TAWANG
arunachalpradesh,1,TAWANG
arunachalpradesh,1,TAWANG
arunachalpradesh,2,WEST KAMENG
arunachalpradesh,2,WEST KAMENG
arunachalpradesh,2,WEST KAMENG
arunachalpradesh,3,EAST KAMENG
arunachalpradesh,3,EAST KAMENG
arunachalpradesh,3,EAST KAMENG
arunachalpradesh,3,EAST KAMENG
arunachalpradesh,3,EAST KAMENG
arunachalpradesh,3,EAST KAMENG
arunachalpradesh,3,EAST KAMENG
arunachalpradesh,3,EAST KAMENG
arunachalpradesh,3,EAST KAMENG
arunachalpradesh,4,LOWER SUBANSIRI
arunachalpradesh,4,LOWER SUBANSIRI
arunachalpradesh,4,LOWER SUBANSIRI
arunachalpradesh,4,LOWER SUBANSIRI
arunachalpradesh,5,UPPER SUBANSIRI
arunachalpradesh,5,UPPER SUBANSIRI
arunachalpradesh,5,UPPER SUBANSIRI
arunachalpradesh,5,UPPER SUBANSIRI
arunachalpradesh,5,UPPER SUBANSIRI
arunachalpradesh,5,UPPER SUBANSIRI
arunachalpradesh,6,WEST SIANG
arunachalpradesh,6,WEST SIANG
arunachalpradesh,6,WEST SIANG
arunachalpradesh,6,WEST SIANG
arunachalpradesh,6,WEST SIANG
arunachalpradesh,6,WEST SIANG
arunachalpradesh,7,EAST SIANG
arunachalpradesh,7,EAST SIANG
arunachalpradesh,7,EAST SIANG
arunachalpradesh,8,DIBANG VALLEY
arunachalpradesh,8,DIBANG VALLEY
arunachalpradesh,8,DIBANG VALLEY
arunachalpradesh,8,DIBANG VALLEY
arunachalpradesh,8,DIBANG VALLEY
arunachalpradesh,8,DIBANG VALLEY
arunachalpradesh,9,Lohit
arunachalpradesh,9,Lohit
arunachalpradesh,9,Lohit
arunachalpradesh,9,Lohit
arunachalpradesh,9,Lohit
arunachalpradesh,9,Lohit
arunachalpradesh,9,Lohit
arunachalpradesh,9,Lohit
arunachalpradesh,9,Lohit
arunachalpradesh,9,Lohit
arunachalpradesh,9,Lohit
arunachalpradesh,3,EAST KAMENG
arunachalpradesh,3,EAST KAMENG
arunachalpradesh,3,EAST KAMENG
arunachalpradesh,3,EAST KAMENG
arunachalpradesh,6,WEST SIANG
arunachalpradesh,6,WEST SIANG
arunachalpradesh,8,DIBANG VALLEY
arunachalpradesh,8,DIBANG VALLEY
tripura,1,WEST TRIPURA
tripura,1,WEST TRIPURA
tripura,1,WEST TRIPURA
tripura,1,WEST TRIPURA
tripura,1,WEST TRIPURA
tripura,1,WEST TRIPURA
tripura,1,WEST TRIPURA
tripura,1,WEST TRIPURA
tripura,1,WEST TRIPURA
tripura,1,WEST TRIPURA
tripura,1,WEST TRIPURA
tripura,1,WEST TRIPURA
tripura,1,WEST TRIPURA
tripura,1,WEST TRIPURA
tripura,1,WEST TRIPURA
tripura,1,WEST TRIPURA
tripura,1,WEST TRIPURA
tripura,1,WEST TRIPURA
tripura,1,WEST TRIPURA
tripura,2,NORTH TRIPURA
tripura,2,NORTH TRIPURA
tripura,2,NORTH TRIPURA
tripura,2,NORTH TRIPURA
tripura,2,NORTH TRIPURA
tripura,2,NORTH TRIPURA
tripura,2,NORTH TRIPURA
tripura,2,NORTH TRIPURA
tripura,2,NORTH TRIPURA
tripura,2,NORTH TRIPURA
tripura,2,NORTH TRIPURA
tripura,2,NORTH TRIPURA
tripura,2,NORTH TRIPURA
tripura,2,NORTH TRIPURA
tripura,2,NORTH TRIPURA
tripura,3,SOUTH TRIPURA
tripura,3,SOUTH TRIPURA
tripura,3,SOUTH TRIPURA
tripura,3,SOUTH TRIPURA
tripura,3,SOUTH TRIPURA
tripura,3,SOUTH TRIPURA
tripura,3,SOUTH TRIPURA
tripura,3,SOUTH TRIPURA
tripura,3,SOUTH TRIPURA
tripura,3,SOUTH TRIPURA
tripura,3,SOUTH TRIPURA
tripura,3,SOUTH TRIPURA
tripura,1,WEST TRIPURA
tripura,1,WEST TRIPURA
tripura,1,WEST TRIPURA
tripura,1,WEST TRIPURA
tripura,1,WEST TRIPURA
tripura,1,WEST TRIPURA
tripura,1,WEST TRIPURA
tripura,1,WEST TRIPURA
tripura,3,SOUTH TRIPURA
tripura,3,SOUTH TRIPURA
