New.variable.name,type,dhs.variable.name,special.recodes.car
"has.malaria","logical","HML32","'Negative' = FALSE; 'Positive' = TRUE; c('Test undetermined', 'Sample not found in lab database') = NA"
"has.mosquito.bed.net","logical","HV227"
"number.of.nets","numeric","HML1","'7 or more' = 7"
"number.of.children.under.5.slept.under.mosquito.bed.net.last.night","numeric","HML2"
"obtained.net.from.campaign","factor","HML22"
"dwelling.has.been.sprayed","factor","HV253"
